EÊID,ID,foCXID,úÔ_FROM,úÔ_TO,ót_l,ñÊk_l,o^_l,¿t_,¿t_l,CAE_,CAE_l,RAOUT_,RAOUT_l,ÞOUT_,ÞOUT_l,ÞOK_,éÆE-ÞOK¦,ÞOK_l,êÊÀ{_,êÊÀ{_l,êÊOUT_,êÊOUT_l,êÊOK_,êÊOK_l,éÆàè_,éÆàè_l,è_l,KPI_CA_1(CAE_ - RAOUT_),KPI_CA_2(( CAE_ - RAOUT_ ) /CAE_),KPI_CA_3(CAE_l-RAOUT_l),KPI_CA_4(( CAE_l-RAOUT_l ) /CAE_l),KPI_CA_5(éÆàè_),KPI_CA_6(éÆàè_l),KPI_CA_7(è_l)
1,CA_3G,2876,2015/10/5,2015/10/11,0,0,0,1 ,1,0,0,0,0,0,0,0,|,0,0,0,0,0,0,0,0,0,0,0,0.000 ,0,0.000 ,0 ,0 ,0
1,CA_3G,2876,2015/11/16,2015/11/22,0,0,0,1 ,1,0,0,0,0,0,0,0,|,0,0,0,0,0,0,0,0,0,0,0,0.000 ,0,0.000 ,0 ,0 ,0
2,CA_4G_K,2936,2015/9/28,2015/10/4,0,0,0,1 ,1,0,0,0,0,0,0,0,|,0,0,0,0,0,0,0,0,0,0,0,0.000 ,0,0.000 ,0 ,0 ,0
2,CA_4G_K,2936,2015/10/5,2015/10/11,0,0,0,1 ,1,0,0,0,0,0,0,0,|,0,0,0,0,0,0,0,0,0,0,0,0.000 ,0,0.000 ,0 ,0 ,0
2,CA_4G_K,2936,2015/10/12,2015/10/18,0,0,0,1 ,1,0,0,0,0,0,0,0,|,0,0,0,0,0,0,0,0,0,0,0,0.000 ,0,0.000 ,0 ,0 ,0
2,CA_4G_K,2936,2015/10/19,2015/10/25,0,0,0,1 ,1,0,0,0,0,0,0,0,|,0,0,0,0,0,0,0,0,0,0,0,0.000 ,0,0.000 ,0 ,0 ,0
2,CA_4G_K,2936,2015/10/26,2015/11/1,0,0,0,1 ,1,0,0,0,0,0,0,0,|,0,0,0,0,0,0,0,0,0,0,0,0.000 ,0,0.000 ,0 ,0 ,0
2,CA_4G_K,2936,2015/11/2,2015/11/8,0,0,0,1 ,1,0,0,0,0,0,0,0,|,0,0,0,0,0,0,0,0,0,0,0,0.000 ,0,0.000 ,0 ,0 ,0
1,CA_3G,2874,2015/9/28,2015/10/4,0,0,0,2 ,1,0,0,0,0,0,0,0,|,0,0,0,0,0,0,0,0,0,0,0,0.000 ,0,0.000 ,0 ,0 ,0
1,CA_3G,2874,2015/10/19,2015/10/25,0,0,0,2 ,2,0,0,0,0,0,0,0,|,0,0,0,0,0,0,0,0,0,0,0,0.000 ,0,0.000 ,0 ,0 ,0
1,CA_3G,2874,2015/11/2,2015/11/8,0,0,0,1 ,1,0,0,0,0,0,0,0,|,0,0,0,0,0,0,0,0,0,0,0,0.000 ,0,0.000 ,0 ,0 ,0
1,CA_3G,2874,2015/11/9,2015/11/15,0,0,0,2 ,2,0,0,0,0,0,0,0,|,0,0,0,0,0,0,0,0,0,0,0,0.000 ,0,0.000 ,0 ,0 ,0
1,CA_3G,2874,2015/11/16,2015/11/22,0,0,0,2 ,2,0,0,0,0,0,0,0,|,0,0,0,0,0,0,0,0,0,0,0,0.000 ,0,0.000 ,0 ,0 ,0
1,CA_3G,2874,2015/11/30,2015/12/6,0,0,0,3 ,2,0,0,0,0,0,0,0,|,0,0,0,0,0,0,0,0,0,0,0,0.000 ,0,0.000 ,0 ,0 ,0
#N/A,#N/A,2930,2015/10/19,2015/10/25,0,0,0,1 ,1,0,0,0,0,0,0,0,|,0,0,0,0,0,0,0,0,0,0,0,0.000 ,0,0.000 ,0 ,0 ,0
#N/A,#N/A,2930,2015/11/30,2015/12/6,0,0,0,3 ,3,0,0,0,0,0,0,0,|,0,0,0,0,0,0,0,0,0,0,0,0.000 ,0,0.000 ,0 ,0 ,0
2,CA_4G_H,2953,2015/10/19,2015/10/25,0,0,0,1 ,1,0,0,0,0,0,0,0,|,0,0,0,0,0,0,0,0,0,0,0,0.000 ,0,0.000 ,0 ,0 ,0
2,CA_4G_H,2953,2015/11/30,2015/12/6,0,0,0,1 ,1,0,0,0,0,0,0,0,|,0,0,0,0,0,0,0,0,0,0,0,0.000 ,0,0.000 ,0 ,0 ,0
1,CA_3G,2876,2015/9/28,2015/10/4,7,5,4,1075 ,91,84,25,49,17,16,14,14,48.3%,11,7,5,1,1,6,5,4,4,10,35,0.417 ,8,0.320 ,4 ,4 ,10
1,CA_3G,2876,2015/10/5,2015/10/11,3,2,2,950 ,85,74,23,45,15,23,18,12,31.6%,6,17,15,5,4,6,6,4,3,0,29,0.392 ,8,0.348 ,4 ,3 ,0
1,CA_3G,2876,2015/10/12,2015/10/18,6,10,7,994 ,96,48,22,23,15,9,8,9,50.0%,9,7,5,3,3,6,6,1,1,0,25,0.521 ,7,0.318 ,1 ,1 ,0
1,CA_3G,2876,2015/10/19,2015/10/25,10,10,5,882 ,96,42,19,14,10,19,16,15,53.6%,15,11,10,3,3,6,6,4,4,0,28,0.667 ,9,0.474 ,4 ,4 ,0
1,CA_3G,2876,2015/10/26,2015/11/1,1,5,9,1125 ,116,71,30,27,13,19,17,9,31.0%,6,11,11,3,3,1,1,0,0,8,44,0.620 ,17,0.567 ,0 ,0 ,8
1,CA_3G,2876,2015/11/2,2015/11/8,6,5,6,924 ,91,62,32,27,17,17,15,10,22.2%,8,3,3,2,2,6,6,0,0,0,35,0.565 ,15,0.469 ,0 ,0 ,0
1,CA_3G,2876,2015/11/9,2015/11/15,1,2,5,773 ,116,20,13,13,11,23,18,12,48.0%,8,10,8,4,4,2,2,1,1,0,7,0.350 ,2,0.154 ,1 ,1 ,0
1,CA_3G,2876,2015/11/16,2015/11/22,8,7,3,896 ,109,72,26,19,11,19,17,8,34.8%,8,9,7,3,3,2,2,3,3,0,53,0.736 ,15,0.577 ,3 ,3 ,0
1,CA_3G,2876,2015/11/23,2015/11/29,5,9,7,819 ,104,47,21,18,11,14,12,12,24.5%,9,6,5,2,2,4,4,1,1,1,29,0.617 ,10,0.476 ,1 ,1 ,1
1,CA_3G,2876,2015/11/30,2015/12/6,4,4,3,621 ,70,24,13,10,6,14,13,13,59.1%,11,5,4,2,2,4,3,3,3,4,14,0.583 ,7,0.538 ,3 ,3 ,4
2,CA_4G_K,2936,2015/10/19,2015/10/25,0,0,0,1 ,1,0,0,0,0,0,0,0,|,0,0,0,0,0,0,0,0,0,0,0,0.000 ,0,0.000 ,0 ,0 ,0
2,CA_4G_K,2936,2015/11/2,2015/11/8,0,0,0,1 ,1,0,0,0,0,0,0,0,|,0,0,0,0,0,0,0,0,0,0,0,0.000 ,0,0.000 ,0 ,0 ,0
2,CA_4G_K,2936,2015/11/9,2015/11/15,0,0,0,2 ,2,0,0,0,0,0,0,0,|,0,0,0,0,0,0,0,0,0,0,0,0.000 ,0,0.000 ,0 ,0 ,0
2,CA_4G_K,2936,2015/11/30,2015/12/6,0,0,0,2 ,2,0,0,0,0,0,0,0,|,0,0,0,0,0,0,0,0,0,0,0,0.000 ,0,0.000 ,0 ,0 ,0
#N/A,#N/A,2915,2015/9/28,2015/10/4,4,5,3,1389 ,113,61,15,39,12,11,9,13,39.4%,10,9,6,2,2,2,2,5,4,4,22,0.361 ,3,0.200 ,5 ,4 ,4
#N/A,#N/A,2915,2015/10/5,2015/10/11,6,6,5,1333 ,128,38,12,15,6,12,9,8,27.6%,7,9,8,2,2,5,4,2,2,0,23,0.605 ,6,0.500 ,2 ,2 ,0
#N/A,#N/A,2915,2015/10/12,2015/10/18,5,6,4,1029 ,124,19,10,6,5,9,8,8,80.0%,5,13,10,6,5,5,4,1,1,0,13,0.684 ,5,0.500 ,1 ,1 ,0
#N/A,#N/A,2915,2015/10/19,2015/10/25,1,2,2,823 ,98,34,12,8,5,13,9,10,40.0%,9,5,3,7,6,3,3,3,3,1,26,0.765 ,7,0.583 ,3 ,3 ,1
#N/A,#N/A,2915,2015/10/26,2015/11/1,10,8,4,1506 ,124,23,13,5,5,7,6,9,64.3%,6,9,9,4,4,0,0,5,5,8,18,0.783 ,8,0.615 ,5 ,5 ,8
#N/A,#N/A,2915,2015/11/2,2015/11/8,7,17,11,1320 ,106,61,14,22,8,4,4,11,64.7%,7,6,6,1,1,2,2,2,2,0,39,0.639 ,6,0.429 ,2 ,2 ,0
#N/A,#N/A,2915,2015/11/9,2015/11/15,4,7,5,1117 ,116,40,13,25,10,11,8,7,23.3%,5,9,6,2,1,4,3,1,1,1,15,0.375 ,3,0.231 ,1 ,1 ,1
#N/A,#N/A,2915,2015/11/16,2015/11/22,8,7,3,1653 ,139,38,12,25,12,9,8,14,77.8%,6,10,6,2,2,8,6,2,2,0,13,0.342 ,0,0.000 ,2 ,2 ,0
#N/A,#N/A,2915,2015/11/23,2015/11/29,3,3,6,862 ,102,35,13,13,8,9,8,5,27.8%,5,7,5,3,3,4,3,3,3,2,22,0.629 ,5,0.385 ,3 ,3 ,2
#N/A,#N/A,2915,2015/11/30,2015/12/6,8,6,4,841 ,95,50,13,28,10,15,9,13,52.0%,8,4,3,3,3,0,0,2,2,6,22,0.440 ,3,0.231 ,2 ,2 ,6
1,CA_3G,2871,2015/9/28,2015/10/4,4,6,5,1346 ,111,67,12,31,10,14,10,15,62.5%,12,14,10,8,8,3,2,6,4,8,36,0.537 ,2,0.167 ,6 ,4 ,8
1,CA_3G,2871,2015/10/5,2015/10/11,7,5,6,1251 ,114,68,15,56,14,15,8,9,29.0%,7,13,9,3,3,5,5,3,3,0,12,0.176 ,1,0.067 ,3 ,3 ,0
1,CA_3G,2871,2015/10/12,2015/10/18,10,11,6,1273 ,121,46,13,30,7,16,10,3,23.1%,3,5,5,3,3,5,5,1,1,0,16,0.348 ,6,0.462 ,1 ,1 ,0
1,CA_3G,2871,2015/10/19,2015/10/25,12,17,10,1570 ,147,69,19,30,12,16,12,12,35.3%,9,5,4,3,2,1,1,2,2,2,39,0.565 ,7,0.368 ,2 ,2 ,2
1,CA_3G,2871,2015/10/26,2015/11/1,3,6,7,1491 ,133,99,22,36,9,16,10,13,33.3%,8,9,8,4,4,3,3,3,3,4,63,0.636 ,13,0.591 ,3 ,3 ,4
1,CA_3G,2871,2015/11/2,2015/11/8,6,9,8,1558 ,121,43,14,42,8,12,11,13,76.5%,11,11,9,3,3,6,6,0,0,0,1,0.023 ,6,0.429 ,0 ,0 ,0
1,CA_3G,2871,2015/11/9,2015/11/15,8,7,3,1325 ,146,38,13,22,9,16,12,6,21.4%,6,8,7,4,3,4,3,3,3,0,16,0.421 ,4,0.308 ,3 ,3 ,0
1,CA_3G,2871,2015/11/16,2015/11/22,5,10,8,1486 ,141,47,14,16,8,6,6,8,42.1%,6,10,10,1,1,2,2,3,3,0,31,0.660 ,6,0.429 ,3 ,3 ,0
1,CA_3G,2871,2015/11/23,2015/11/29,1,2,3,1176 ,102,62,25,25,12,14,12,10,41.7%,7,4,4,2,2,3,3,2,2,4,37,0.597 ,13,0.520 ,2 ,2 ,4
1,CA_3G,2871,2015/11/30,2015/12/6,7,7,5,1065 ,105,29,11,17,11,18,11,10,34.5%,8,3,3,3,3,3,3,3,3,5,12,0.414 ,0,0.000 ,3 ,3 ,5
1,CA_3G,2874,2015/9/28,2015/10/4,0,0,0,1 ,1,0,0,0,0,0,0,0,|,0,0,0,0,0,0,0,0,0,0,0,0.000 ,0,0.000 ,0 ,0 ,0
1,CA_3G,2874,2015/10/19,2015/10/25,0,0,0,1 ,1,0,0,0,0,0,0,0,|,0,0,0,0,0,0,0,0,0,0,0,0.000 ,0,0.000 ,0 ,0 ,0
1,CA_3G,2874,2015/10/26,2015/11/1,0,0,0,1 ,1,0,0,0,0,0,0,0,|,0,0,0,0,0,0,0,0,0,0,0,0.000 ,0,0.000 ,0 ,0 ,0
1,CA_3G,2874,2015/11/2,2015/11/8,0,0,0,2 ,2,0,0,0,0,0,0,0,|,0,0,0,0,0,0,0,0,0,0,0,0.000 ,0,0.000 ,0 ,0 ,0
1,CA_3G,2874,2015/11/30,2015/12/6,0,0,0,1 ,1,0,0,0,0,0,0,0,|,0,0,0,0,0,0,0,0,0,0,0,0.000 ,0,0.000 ,0 ,0 ,0
#N/A,#N/A,2919,2015/10/19,2015/10/25,0,0,0,1 ,1,0,0,0,0,0,0,0,|,0,0,0,0,0,0,0,0,0,0,0,0.000 ,0,0.000 ,0 ,0 ,0
#N/A,#N/A,2919,2015/11/9,2015/11/15,0,0,0,1 ,1,0,0,0,0,0,0,0,|,0,0,0,0,0,0,0,0,0,0,0,0.000 ,0,0.000 ,0 ,0 ,0
#N/A,#N/A,2919,2015/11/30,2015/12/6,0,0,0,1 ,1,0,0,0,0,0,0,0,|,0,0,0,0,0,0,0,0,0,0,0,0.000 ,0,0.000 ,0 ,0 ,0
1,CA_3G,2872,2015/9/28,2015/10/4,4,6,7,3174 ,199,72,26,27,17,19,17,11,44.0%,10,8,6,4,3,5,5,1,1,9,45,0.625 ,9,0.346 ,1 ,1 ,9
1,CA_3G,2872,2015/10/5,2015/10/11,11,2,3,3050 ,183,74,18,22,12,24,17,16,34.8%,12,7,6,3,3,8,7,4,4,0,52,0.703 ,6,0.333 ,4 ,4 ,0
1,CA_3G,2872,2015/10/12,2015/10/18,5,7,8,2590 ,170,53,20,14,10,23,19,16,47.1%,10,10,8,0,0,2,2,0,0,0,39,0.736 ,10,0.500 ,0 ,0 ,0
1,CA_3G,2872,2015/10/19,2015/10/25,6,10,8,2842 ,213,48,22,12,11,26,17,10,21.3%,7,14,12,4,4,6,6,2,2,0,36,0.750 ,11,0.500 ,2 ,2 ,0
1,CA_3G,2872,2015/10/26,2015/11/1,6,4,8,3456 ,197,76,33,23,11,22,15,12,27.9%,11,13,11,5,5,9,9,6,6,9,53,0.697 ,22,0.667 ,6 ,6 ,9
1,CA_3G,2872,2015/11/2,2015/11/8,6,8,5,3647 ,211,68,34,25,13,34,25,22,44.9%,18,10,10,6,6,3,3,3,3,0,43,0.632 ,21,0.618 ,3 ,3 ,0
1,CA_3G,2872,2015/11/9,2015/11/15,5,4,6,3130 ,190,133,36,32,17,34,26,13,18.8%,10,14,14,9,9,5,5,3,3,0,101,0.759 ,19,0.528 ,3 ,3 ,0
1,CA_3G,2872,2015/11/16,2015/11/22,7,6,7,3659 ,213,79,33,40,22,46,25,20,32.3%,16,17,15,6,6,4,4,3,3,1,39,0.494 ,11,0.333 ,3 ,3 ,1
1,CA_3G,2872,2015/11/23,2015/11/29,7,8,5,3129 ,204,72,33,25,16,24,18,16,32.0%,14,12,9,10,7,8,8,0,0,1,47,0.653 ,17,0.515 ,0 ,0 ,1
1,CA_3G,2872,2015/11/30,2015/12/6,3,0,1,2973 ,196,72,23,23,10,42,28,19,38.0%,13,12,12,2,2,6,6,2,2,7,49,0.681 ,13,0.565 ,2 ,2 ,7
1,CA_3G,2873,2015/9/28,2015/10/4,6,7,11,1866 ,99,64,15,37,10,15,10,11,47.8%,10,6,6,5,4,2,2,2,2,9,27,0.422 ,5,0.333 ,2 ,2 ,9
1,CA_3G,2873,2015/10/5,2015/10/11,3,4,2,1921 ,102,34,11,22,7,19,12,6,26.1%,5,9,8,4,4,3,3,0,0,0,12,0.353 ,4,0.364 ,0 ,0 ,0
1,CA_3G,2873,2015/10/12,2015/10/18,3,3,2,1847 ,98,57,17,18,7,15,12,8,21.6%,6,8,8,5,5,3,3,2,2,0,39,0.684 ,10,0.588 ,2 ,2 ,0
1,CA_3G,2873,2015/10/19,2015/10/25,6,6,7,1898 ,108,107,16,32,9,26,15,24,37.5%,12,8,8,2,2,2,2,3,3,0,75,0.701 ,7,0.438 ,3 ,3 ,0
1,CA_3G,2873,2015/10/26,2015/11/1,5,6,4,2342 ,106,64,22,26,15,27,13,12,29.3%,9,14,9,5,5,7,5,1,1,6,38,0.594 ,7,0.318 ,1 ,1 ,6
1,CA_3G,2873,2015/11/2,2015/11/8,4,6,5,2147 ,106,78,27,8,7,22,15,18,42.9%,14,17,10,4,3,2,2,1,1,0,70,0.897 ,20,0.741 ,1 ,1 ,0
1,CA_3G,2873,2015/11/9,2015/11/15,5,0,2,1823 ,103,35,13,23,10,22,14,18,42.9%,11,21,15,6,6,9,9,3,3,0,12,0.343 ,3,0.231 ,3 ,3 ,0
1,CA_3G,2873,2015/11/16,2015/11/22,8,10,6,2278 ,107,38,14,9,4,17,13,8,53.3%,6,8,6,4,4,9,8,5,4,2,29,0.763 ,10,0.714 ,5 ,4 ,2
1,CA_3G,2873,2015/11/23,2015/11/29,4,3,3,2173 ,109,94,15,16,10,13,8,20,30.3%,11,14,14,4,4,3,3,1,1,2,78,0.830 ,5,0.333 ,1 ,1 ,2
1,CA_3G,2873,2015/11/30,2015/12/6,5,9,8,2197 ,121,83,20,37,12,30,20,15,38.5%,9,9,8,5,5,6,6,8,8,1,46,0.554 ,8,0.400 ,8 ,8 ,1
1,CA_4G_K,2951,2015/11/9,2015/11/15,0,0,0,2 ,2,0,0,0,0,0,0,0,|,0,0,0,0,0,0,0,0,0,0,0,0.000 ,0,0.000 ,0 ,0 ,0
1,CA_3G,2874,2015/9/28,2015/10/4,7,3,1,2167 ,144,48,12,30,9,17,15,13,35.1%,10,11,7,6,5,3,3,4,4,12,18,0.375 ,3,0.250 ,4 ,4 ,12
1,CA_3G,2874,2015/10/5,2015/10/11,5,7,12,2118 ,135,84,29,34,18,16,10,5,18.5%,4,7,7,6,4,6,6,0,0,0,50,0.595 ,11,0.379 ,0 ,0 ,0
1,CA_3G,2874,2015/10/12,2015/10/18,2,6,4,1833 ,109,85,23,26,14,10,8,3,10.7%,2,6,6,4,4,0,0,2,2,0,59,0.694 ,9,0.391 ,2 ,2 ,0
1,CA_3G,2874,2015/10/19,2015/10/25,8,4,4,1867 ,124,82,26,50,16,40,26,14,21.2%,11,3,3,2,2,3,3,0,0,0,32,0.390 ,10,0.385 ,0 ,0 ,0
1,CA_3G,2874,2015/10/26,2015/11/1,4,7,6,2211 ,130,53,19,31,12,28,20,15,42.9%,14,11,9,3,3,4,3,6,5,5,22,0.415 ,7,0.368 ,6 ,5 ,5
1,CA_3G,2874,2015/11/2,2015/11/8,0,3,2,2177 ,123,74,26,13,11,26,18,17,40.5%,12,10,9,5,5,3,3,0,0,0,61,0.824 ,15,0.577 ,0 ,0 ,0
1,CA_3G,2874,2015/11/9,2015/11/15,4,2,1,2122 ,123,118,30,32,19,29,16,23,27.1%,16,11,9,4,4,5,5,2,2,0,86,0.729 ,11,0.367 ,2 ,2 ,0
1,CA_3G,2874,2015/11/16,2015/11/22,7,4,4,2035 ,125,85,30,45,21,36,19,22,45.8%,15,11,8,6,5,2,2,1,1,0,40,0.471 ,9,0.300 ,1 ,1 ,0
1,CA_3G,2874,2015/11/23,2015/11/29,6,6,5,1895 ,122,79,30,22,12,28,21,12,28.6%,12,26,20,13,12,7,6,2,2,0,57,0.722 ,18,0.600 ,2 ,2 ,0
1,CA_3G,2874,2015/11/30,2015/12/6,6,4,4,1979 ,129,88,25,21,13,32,24,26,42.6%,15,16,15,15,13,6,5,2,2,3,67,0.761 ,12,0.480 ,2 ,2 ,3
1,CA_3G,2875,2015/9/28,2015/10/4,0,0,0,0 ,0,0,0,0,0,0,0,0,|,0,0,0,0,0,0,0,0,0,0,0,0.000 ,0,0.000 ,0 ,0 ,0
1,CA_3G,2875,2015/10/5,2015/10/11,0,0,0,14 ,2,0,0,0,0,0,0,0,|,0,0,0,0,0,0,0,0,0,0,0,0.000 ,0,0.000 ,0 ,0 ,0
1,CA_3G,2875,2015/10/12,2015/10/18,0,0,0,5 ,1,1,1,0,0,0,0,0,|,0,0,0,0,0,0,0,0,0,0,1,1.000 ,1,1.000 ,0 ,0 ,0
1,CA_3G,2875,2015/10/19,2015/10/25,0,0,0,15 ,1,0,0,0,0,1,1,0,|,0,0,0,0,0,0,0,0,0,0,0,0.000 ,0,0.000 ,0 ,0 ,0
1,CA_3G,2875,2015/10/26,2015/11/1,0,0,0,14 ,1,0,0,0,0,0,0,0,|,0,0,0,0,0,0,0,0,0,0,0,0.000 ,0,0.000 ,0 ,0 ,0
1,CA_3G,2875,2015/11/2,2015/11/8,0,0,0,8 ,1,0,0,0,0,0,0,0,|,0,0,0,0,0,0,0,0,0,0,0,0.000 ,0,0.000 ,0 ,0 ,0
1,CA_3G,2875,2015/11/9,2015/11/15,0,0,0,12 ,1,0,0,0,0,0,0,0,|,0,0,0,0,0,0,0,0,0,0,0,0.000 ,0,0.000 ,0 ,0 ,0
1,CA_3G,2875,2015/11/16,2015/11/22,0,0,0,15 ,1,0,0,0,0,0,0,0,|,0,0,0,0,0,0,0,0,0,0,0,0.000 ,0,0.000 ,0 ,0 ,0
1,CA_3G,2875,2015/11/23,2015/11/29,0,1,0,41 ,3,0,0,0,0,0,0,0,|,0,0,0,0,0,0,0,0,0,0,0,0.000 ,0,0.000 ,0 ,0 ,0
1,CA_3G,2875,2015/11/30,2015/12/6,0,0,0,17 ,2,0,0,0,0,0,0,0,|,0,0,0,0,0,0,0,0,0,0,0,0.000 ,0,0.000 ,0 ,0 ,0
1,CA_3G,2876,2015/10/5,2015/10/11,2,0,0,0 ,0,0,0,0,0,0,0,0,|,0,0,0,0,0,0,0,0,0,0,0,0.000 ,0,0.000 ,0 ,0 ,0
1,CA_3G,2876,2015/10/12,2015/10/18,1,0,0,0 ,0,0,0,0,0,0,0,0,|,0,0,0,0,0,0,0,0,0,0,0,0.000 ,0,0.000 ,0 ,0 ,0
2,CA_4G_K,2936,2015/11/9,2015/11/15,0,0,0,1 ,1,0,0,0,0,0,0,0,|,0,0,0,0,0,0,0,0,0,0,0,0.000 ,0,0.000 ,0 ,0 ,0
#N/A,#N/A,2915,2015/10/5,2015/10/11,0,0,0,1 ,1,0,0,0,0,0,0,0,|,0,0,0,0,0,0,0,0,0,0,0,0.000 ,0,0.000 ,0 ,0 ,0
#N/A,#N/A,2915,2015/10/12,2015/10/18,2,1,0,29 ,2,0,0,0,0,0,0,0,|,0,0,0,0,0,0,0,0,0,0,0,0.000 ,0,0.000 ,0 ,0 ,0
#N/A,#N/A,2915,2015/10/19,2015/10/25,0,0,0,1 ,1,0,0,0,0,0,0,0,|,0,0,0,0,0,0,0,0,0,0,0,0.000 ,0,0.000 ,0 ,0 ,0
#N/A,#N/A,2915,2015/11/9,2015/11/15,0,0,0,1 ,1,0,0,0,0,0,0,0,|,0,0,0,0,0,0,0,0,0,0,0,0.000 ,0,0.000 ,0 ,0 ,0
#N/A,#N/A,2915,2015/11/30,2015/12/6,0,0,0,5 ,5,0,0,0,0,0,0,0,|,0,0,0,0,0,0,0,0,0,0,0,0.000 ,0,0.000 ,0 ,0 ,0
1,CA_3G,2935,2015/9/28,2015/10/4,9,12,13,2910 ,173,62,18,22,10,15,12,9,33.3%,8,6,5,3,2,2,2,1,1,4,40,0.645 ,8,0.444 ,1 ,1 ,4
1,CA_3G,2935,2015/10/5,2015/10/11,6,8,4,2774 ,170,75,20,30,12,18,13,8,18.2%,7,8,7,3,3,3,3,2,2,0,45,0.600 ,8,0.400 ,2 ,2 ,0
1,CA_3G,2935,2015/10/12,2015/10/18,3,7,7,2733 ,171,74,22,25,11,16,15,15,60.0%,14,10,10,2,2,3,3,2,2,0,49,0.662 ,11,0.500 ,2 ,2 ,0
1,CA_3G,2935,2015/10/19,2015/10/25,10,9,6,2330 ,159,60,20,31,16,17,13,14,33.3%,11,9,8,6,6,3,3,2,2,0,29,0.483 ,4,0.200 ,2 ,2 ,0
1,CA_3G,2935,2015/10/26,2015/11/1,0,5,6,2780 ,166,119,29,42,15,23,15,19,32.8%,15,10,9,6,6,3,3,2,2,6,77,0.647 ,14,0.483 ,2 ,2 ,6
1,CA_3G,2935,2015/11/2,2015/11/8,5,3,2,2496 ,154,85,25,23,14,17,15,19,39.6%,15,18,13,3,2,2,2,1,1,0,62,0.729 ,11,0.440 ,1 ,1 ,0
1,CA_3G,2935,2015/11/9,2015/11/15,3,6,4,2452 ,163,94,22,39,14,25,13,31,45.6%,21,16,14,5,5,7,7,3,3,0,55,0.585 ,8,0.364 ,3 ,3 ,0
1,CA_3G,2935,2015/11/16,2015/11/22,9,7,4,2463 ,162,37,20,9,7,26,16,26,72.2%,16,22,18,11,10,6,5,4,4,0,28,0.757 ,13,0.650 ,4 ,4 ,0
1,CA_3G,2935,2015/11/23,2015/11/29,5,5,6,2097 ,142,36,17,13,11,17,14,6,23.1%,6,19,13,10,7,6,5,2,2,4,23,0.639 ,6,0.353 ,2 ,2 ,4
1,CA_3G,2935,2015/11/30,2015/12/6,3,12,5,2443 ,150,58,17,10,7,23,16,9,27.3%,7,8,6,8,8,9,6,2,2,5,48,0.828 ,10,0.588 ,2 ,2 ,5
#N/A,#N/A,2916,2015/11/23,2015/11/29,0,0,0,1 ,1,0,0,0,0,0,0,0,|,0,0,0,0,0,0,0,0,0,0,0,0.000 ,0,0.000 ,0 ,0 ,0
#N/A,#N/A,2916,2015/11/30,2015/12/6,0,0,0,4 ,3,0,0,0,0,0,0,0,|,0,0,0,0,0,0,0,0,0,0,0,0.000 ,0,0.000 ,0 ,0 ,0
1,CA_3G,2871,2015/10/5,2015/10/11,1,0,0,11 ,1,0,0,0,0,0,0,0,|,0,0,0,0,0,0,0,0,0,0,0,0.000 ,0,0.000 ,0 ,0 ,0
1,CA_3G,2871,2015/11/16,2015/11/22,1,1,1,34 ,1,0,0,0,0,0,0,0,|,0,0,0,0,0,0,0,0,0,0,0,0.000 ,0,0.000 ,0 ,0 ,0
1,CA_3G,2960,2015/9/28,2015/10/4,8,7,4,2524 ,127,98,25,41,14,29,18,11,20.0%,7,7,6,5,5,3,3,2,2,6,57,0.582 ,11,0.440 ,2 ,2 ,6
1,CA_3G,2960,2015/10/5,2015/10/11,6,5,5,2584 ,131,58,20,27,16,20,16,17,53.1%,12,14,12,3,3,3,3,2,2,0,31,0.534 ,4,0.200 ,2 ,2 ,0
1,CA_3G,2960,2015/10/12,2015/10/18,7,9,10,2456 ,144,68,22,31,14,15,14,4,13.3%,4,8,7,3,3,3,3,3,3,0,37,0.544 ,8,0.364 ,3 ,3 ,0
1,CA_3G,2960,2015/10/19,2015/10/25,7,10,5,2393 ,126,117,29,58,19,36,22,14,22.6%,12,6,6,6,5,5,4,1,1,0,59,0.504 ,10,0.345 ,1 ,1 ,0
1,CA_3G,2960,2015/10/26,2015/11/1,7,6,10,3236 ,157,117,30,39,20,27,20,21,32.8%,16,8,8,4,4,4,4,1,1,5,78,0.667 ,10,0.333 ,1 ,1 ,5
1,CA_3G,2960,2015/11/2,2015/11/8,4,8,6,3519 ,160,131,31,45,19,30,21,24,31.2%,17,17,13,4,4,4,4,2,2,0,86,0.656 ,12,0.387 ,2 ,2 ,0
1,CA_3G,2960,2015/11/9,2015/11/15,6,6,6,3534 ,161,89,27,36,20,29,16,22,50.0%,17,26,19,6,6,11,10,1,1,0,53,0.596 ,7,0.259 ,1 ,1 ,0
1,CA_3G,2960,2015/11/16,2015/11/22,7,6,4,4000 ,161,97,30,49,19,37,20,19,28.8%,17,11,10,4,3,3,3,5,5,0,48,0.495 ,11,0.367 ,5 ,5 ,0
1,CA_3G,2960,2015/11/23,2015/11/29,2,6,3,3304 ,160,99,26,47,16,27,21,17,41.5%,13,20,18,13,11,6,5,1,1,0,52,0.525 ,10,0.385 ,1 ,1 ,0
1,CA_3G,2960,2015/11/30,2015/12/6,10,6,6,3195 ,157,71,25,20,12,26,19,19,52.8%,12,18,16,8,8,7,6,1,1,6,51,0.718 ,13,0.520 ,1 ,1 ,6
#N/A,#N/A,2916,2015/9/28,2015/10/4,3,2,6,1537 ,100,86,21,25,12,27,16,9,29.0%,9,10,8,10,8,4,4,2,2,2,61,0.709 ,9,0.429 ,2 ,2 ,2
#N/A,#N/A,2916,2015/10/5,2015/10/11,0,4,4,1516 ,106,56,16,30,13,26,17,16,36.4%,11,0,0,2,1,0,0,2,2,0,26,0.464 ,3,0.188 ,2 ,2 ,0
#N/A,#N/A,2916,2015/10/12,2015/10/18,2,5,4,1287 ,103,41,15,21,8,5,5,12,75.0%,8,12,10,2,2,1,1,1,1,0,20,0.488 ,7,0.467 ,1 ,1 ,0
#N/A,#N/A,2916,2015/10/19,2015/10/25,4,6,1,1292 ,107,23,8,14,11,19,14,5,35.7%,4,10,8,3,3,2,2,0,0,0,9,0.391 ,-3,-0.375 ,0 ,0 ,0
#N/A,#N/A,2916,2015/10/26,2015/11/1,8,6,9,1675 ,114,37,18,13,9,14,12,3,20.0%,3,5,5,0,0,7,7,4,4,3,24,0.649 ,9,0.500 ,4 ,4 ,3
#N/A,#N/A,2916,2015/11/2,2015/11/8,1,7,7,1658 ,121,66,23,25,13,13,12,6,21.4%,5,2,2,3,3,1,1,1,1,0,41,0.621 ,10,0.435 ,1 ,1 ,0
#N/A,#N/A,2916,2015/11/9,2015/11/15,4,8,3,1653 ,120,72,26,32,12,20,15,12,23.1%,8,4,4,5,5,0,0,0,0,0,40,0.556 ,14,0.538 ,0 ,0 ,0
#N/A,#N/A,2916,2015/11/16,2015/11/22,5,5,6,1659 ,122,57,18,29,11,21,13,6,21.4%,5,11,8,3,3,5,4,1,1,1,28,0.491 ,7,0.389 ,1 ,1 ,1
#N/A,#N/A,2916,2015/11/23,2015/11/29,5,7,6,1461 ,120,103,22,43,16,17,13,11,23.4%,8,8,8,5,5,2,2,0,0,3,60,0.583 ,6,0.273 ,0 ,0 ,3
#N/A,#N/A,2916,2015/11/30,2015/12/6,2,5,6,1291 ,129,33,21,17,10,24,20,20,69.0%,14,10,7,2,2,1,1,1,1,0,16,0.485 ,11,0.524 ,1 ,1 ,0
2,CA_4G_K,2897,2015/11/16,2015/11/22,0,0,0,1 ,1,0,0,0,0,0,0,0,|,0,0,0,0,0,0,0,0,0,0,0,0.000 ,0,0.000 ,0 ,0 ,0
#N/A,#N/A,2930,2015/9/28,2015/10/4,0,0,0,1 ,1,0,0,0,0,0,0,0,|,0,0,0,0,0,0,0,0,0,0,0,0.000 ,0,0.000 ,0 ,0 ,0
#N/A,#N/A,2930,2015/10/5,2015/10/11,0,0,0,1 ,1,0,0,0,0,0,0,0,|,0,0,0,0,0,0,0,0,0,0,0,0.000 ,0,0.000 ,0 ,0 ,0
#N/A,#N/A,2930,2015/10/19,2015/10/25,0,0,0,10 ,9,0,0,0,0,0,0,0,|,0,0,0,0,0,0,0,0,0,0,0,0.000 ,0,0.000 ,0 ,0 ,0
#N/A,#N/A,2930,2015/11/2,2015/11/8,0,0,0,8 ,8,0,0,0,0,0,0,0,|,0,0,0,0,0,0,0,0,0,0,0,0.000 ,0,0.000 ,0 ,0 ,0
#N/A,#N/A,2930,2015/11/9,2015/11/15,0,0,0,4 ,3,0,0,0,0,0,0,0,|,0,0,0,0,0,0,0,0,0,0,0,0.000 ,0,0.000 ,0 ,0 ,0
#N/A,#N/A,2930,2015/11/16,2015/11/22,0,0,0,2 ,2,0,0,0,0,0,0,0,|,0,0,0,0,0,0,0,0,0,0,0,0.000 ,0,0.000 ,0 ,0 ,0
#N/A,#N/A,2930,2015/11/30,2015/12/6,0,0,0,18 ,18,0,0,0,0,0,0,0,|,0,0,0,0,0,0,0,0,0,0,0,0.000 ,0,0.000 ,0 ,0 ,0
2,CA_4G_I,2899,2015/10/5,2015/10/11,0,0,0,1 ,1,0,0,0,0,0,0,0,|,0,0,0,0,0,0,0,0,0,0,0,0.000 ,0,0.000 ,0 ,0 ,0
2,CA_4G_I,2899,2015/10/19,2015/10/25,0,0,0,1 ,1,0,0,0,0,0,0,0,|,0,0,0,0,0,0,0,0,0,0,0,0.000 ,0,0.000 ,0 ,0 ,0
2,CA_4G_I,2899,2015/11/16,2015/11/22,0,0,0,1 ,1,0,0,0,0,0,0,0,|,0,0,0,0,0,0,0,0,0,0,0,0.000 ,0,0.000 ,0 ,0 ,0
2,CA_4G_I,2899,2015/11/30,2015/12/6,0,0,0,1 ,1,0,0,0,0,0,0,0,|,0,0,0,0,0,0,0,0,0,0,0,0.000 ,0,0.000 ,0 ,0 ,0
#N/A,#N/A,2918,2015/9/28,2015/10/4,0,0,0,2 ,2,0,0,0,0,0,0,0,|,0,0,0,0,0,0,0,0,0,0,0,0.000 ,0,0.000 ,0 ,0 ,0
#N/A,#N/A,2918,2015/10/5,2015/10/11,0,0,0,3 ,2,0,0,0,0,0,0,0,|,0,0,0,0,0,0,0,0,0,0,0,0.000 ,0,0.000 ,0 ,0 ,0
#N/A,#N/A,2918,2015/10/12,2015/10/18,0,0,0,1 ,1,0,0,0,0,0,0,0,|,0,0,0,0,0,0,0,0,0,0,0,0.000 ,0,0.000 ,0 ,0 ,0
#N/A,#N/A,2918,2015/10/19,2015/10/25,0,0,0,3 ,3,0,0,0,0,0,0,0,|,0,0,0,0,0,0,0,0,0,0,0,0.000 ,0,0.000 ,0 ,0 ,0
#N/A,#N/A,2918,2015/11/2,2015/11/8,0,0,0,1 ,1,0,0,0,0,0,0,0,|,0,0,0,0,0,0,0,0,0,0,0,0.000 ,0,0.000 ,0 ,0 ,0
#N/A,#N/A,2918,2015/11/9,2015/11/15,0,0,0,2 ,2,0,0,0,0,0,0,0,|,0,0,0,0,0,0,0,0,0,0,0,0.000 ,0,0.000 ,0 ,0 ,0
#N/A,#N/A,2918,2015/11/30,2015/12/6,0,0,0,14 ,9,0,0,0,0,0,0,0,|,0,0,0,0,0,0,0,0,0,0,0,0.000 ,0,0.000 ,0 ,0 ,0
2,CA_4G_H,2953,2015/9/28,2015/10/4,0,0,0,2 ,2,0,0,0,0,0,0,0,|,0,0,0,0,0,0,0,0,0,0,0,0.000 ,0,0.000 ,0 ,0 ,0
2,CA_4G_H,2953,2015/10/5,2015/10/11,0,0,0,3 ,3,0,0,0,0,0,0,0,|,0,0,0,0,0,0,0,0,0,0,0,0.000 ,0,0.000 ,0 ,0 ,0
2,CA_4G_H,2953,2015/10/12,2015/10/18,0,0,0,1 ,1,0,0,0,0,0,0,0,|,0,0,0,0,0,0,0,0,0,0,0,0.000 ,0,0.000 ,0 ,0 ,0
2,CA_4G_H,2953,2015/10/19,2015/10/25,0,0,0,10 ,10,0,0,0,0,0,0,0,|,0,0,0,0,0,0,0,0,0,0,0,0.000 ,0,0.000 ,0 ,0 ,0
2,CA_4G_H,2953,2015/10/26,2015/11/1,0,0,0,1 ,1,0,0,0,0,0,0,0,|,0,0,0,0,0,0,0,0,0,0,0,0.000 ,0,0.000 ,0 ,0 ,0
2,CA_4G_H,2953,2015/11/2,2015/11/8,0,0,0,10 ,6,0,0,0,0,0,0,0,|,0,0,0,0,0,0,0,0,0,0,0,0.000 ,0,0.000 ,0 ,0 ,0
2,CA_4G_H,2953,2015/11/9,2015/11/15,0,0,0,7 ,3,0,0,0,0,0,0,0,|,0,0,0,0,0,0,0,0,0,0,0,0.000 ,0,0.000 ,0 ,0 ,0
2,CA_4G_H,2953,2015/11/16,2015/11/22,0,0,0,7 ,7,0,0,0,0,0,0,0,|,0,0,0,0,0,0,0,0,0,0,0,0.000 ,0,0.000 ,0 ,0 ,0
2,CA_4G_H,2953,2015/11/23,2015/11/29,0,0,0,2 ,2,0,0,0,0,0,0,0,|,0,0,0,0,0,0,0,0,0,0,0,0.000 ,0,0.000 ,0 ,0 ,0
2,CA_4G_H,2953,2015/11/30,2015/12/6,0,0,0,20 ,16,0,0,0,0,0,0,0,|,0,0,0,0,0,0,0,0,0,0,0,0.000 ,0,0.000 ,0 ,0 ,0
#N/A,#N/A,2919,2015/11/2,2015/11/8,0,0,0,2 ,2,0,0,0,0,0,0,0,|,0,0,0,0,0,0,0,0,0,0,0,0.000 ,0,0.000 ,0 ,0 ,0
#N/A,#N/A,2919,2015/11/30,2015/12/6,0,0,0,3 ,2,0,0,0,0,0,0,0,|,0,0,0,0,0,0,0,0,0,0,0,0.000 ,0,0.000 ,0 ,0 ,0
2,CA_4G_H,2892,2015/10/5,2015/10/11,0,0,0,1 ,1,0,0,0,0,0,0,0,|,0,0,0,0,0,0,0,0,0,0,0,0.000 ,0,0.000 ,0 ,0 ,0
2,CA_4G_H,2892,2015/10/12,2015/10/18,0,0,0,1 ,1,0,0,0,0,0,0,0,|,0,0,0,0,0,0,0,0,0,0,0,0.000 ,0,0.000 ,0 ,0 ,0
2,CA_4G_H,2892,2015/10/19,2015/10/25,0,0,0,3 ,3,0,0,0,0,0,0,0,|,0,0,0,0,0,0,0,0,0,0,0,0.000 ,0,0.000 ,0 ,0 ,0
2,CA_4G_H,2892,2015/11/2,2015/11/8,0,0,0,5 ,5,0,0,0,0,0,0,0,|,0,0,0,0,0,0,0,0,0,0,0,0.000 ,0,0.000 ,0 ,0 ,0
2,CA_4G_H,2892,2015/11/9,2015/11/15,0,0,0,4 ,4,0,0,0,0,0,0,0,|,0,0,0,0,0,0,0,0,0,0,0,0.000 ,0,0.000 ,0 ,0 ,0
2,CA_4G_H,2892,2015/11/16,2015/11/22,0,0,0,4 ,4,0,0,0,0,0,0,0,|,0,0,0,0,0,0,0,0,0,0,0,0.000 ,0,0.000 ,0 ,0 ,0
2,CA_4G_H,2892,2015/11/30,2015/12/6,0,0,0,16 ,15,0,0,0,0,0,0,0,|,0,0,0,0,0,0,0,0,0,0,0,0.000 ,0,0.000 ,0 ,0 ,0
2,CA_4G_H,2931,2015/10/12,2015/10/18,0,0,0,1 ,1,0,0,0,0,0,0,0,|,0,0,0,0,0,0,0,0,0,0,0,0.000 ,0,0.000 ,0 ,0 ,0
2,CA_4G_H,2931,2015/10/19,2015/10/25,0,0,0,2 ,1,0,0,0,0,0,0,0,|,0,0,0,0,0,0,0,0,0,0,0,0.000 ,0,0.000 ,0 ,0 ,0
2,CA_4G_H,2931,2015/11/16,2015/11/22,0,0,0,1 ,1,0,0,0,0,0,0,0,|,0,0,0,0,0,0,0,0,0,0,0,0.000 ,0,0.000 ,0 ,0 ,0
2,CA_4G_H,2931,2015/11/30,2015/12/6,0,0,0,3 ,3,0,0,0,0,0,0,0,|,0,0,0,0,0,0,0,0,0,0,0,0.000 ,0,0.000 ,0 ,0 ,0
2,CA_4G_H,2932,2015/11/30,2015/12/6,0,0,0,1 ,1,0,0,0,0,0,0,0,|,0,0,0,0,0,0,0,0,0,0,0,0.000 ,0,0.000 ,0 ,0 ,0
2,CA_4G_I,2910,2015/10/19,2015/10/25,0,0,0,1 ,1,0,0,0,0,0,0,0,|,0,0,0,0,0,0,0,0,0,0,0,0.000 ,0,0.000 ,0 ,0 ,0
2,CA_4G_I,2910,2015/10/26,2015/11/1,0,0,0,4 ,2,0,0,0,0,0,0,0,|,0,0,0,0,0,0,0,0,0,0,0,0.000 ,0,0.000 ,0 ,0 ,0
2,CA_4G_I,2910,2015/11/2,2015/11/8,0,0,0,4 ,3,0,0,0,0,0,0,0,|,0,0,0,0,0,0,0,0,0,0,0,0.000 ,0,0.000 ,0 ,0 ,0
2,CA_4G_I,2910,2015/11/9,2015/11/15,0,0,0,1 ,1,0,0,0,0,0,0,0,|,0,0,0,0,0,0,0,0,0,0,0,0.000 ,0,0.000 ,0 ,0 ,0
2,CA_4G_I,2910,2015/11/23,2015/11/29,0,0,0,2 ,1,0,0,0,0,0,0,0,|,0,0,0,0,0,0,0,0,0,0,0,0.000 ,0,0.000 ,0 ,0 ,0
2,CA_4G_I,2910,2015/11/30,2015/12/6,0,0,0,6 ,5,0,0,0,0,0,0,0,|,0,0,0,0,0,0,0,0,0,0,0,0.000 ,0,0.000 ,0 ,0 ,0
1,CA_4G_H,2937,2015/10/26,2015/11/1,0,0,0,1 ,1,0,0,0,0,0,0,0,|,0,0,0,0,0,0,0,0,0,0,0,0.000 ,0,0.000 ,0 ,0 ,0
1,CA_4G_H,2937,2015/11/2,2015/11/8,0,0,0,2 ,2,0,0,0,0,0,0,0,|,0,0,0,0,0,0,0,0,0,0,0,0.000 ,0,0.000 ,0 ,0 ,0
1,CA_4G_H,2937,2015/11/16,2015/11/22,0,0,0,1 ,1,0,0,0,0,0,0,0,|,0,0,0,0,0,0,0,0,0,0,0,0.000 ,0,0.000 ,0 ,0 ,0
1,CA_4G_H,2937,2015/11/30,2015/12/6,0,0,0,1 ,1,0,0,0,0,0,0,0,|,0,0,0,0,0,0,0,0,0,0,0,0.000 ,0,0.000 ,0 ,0 ,0
2,CA_4G_I,2891,2015/10/19,2015/10/25,0,0,0,2 ,2,0,0,0,0,0,0,0,|,0,0,0,0,0,0,0,0,0,0,0,0.000 ,0,0.000 ,0 ,0 ,0
2,CA_4G_I,2891,2015/11/2,2015/11/8,0,0,0,2 ,2,0,0,0,0,0,0,0,|,0,0,0,0,0,0,0,0,0,0,0,0.000 ,0,0.000 ,0 ,0 ,0
2,CA_4G_I,2891,2015/11/9,2015/11/15,0,0,0,1 ,1,0,0,0,0,0,0,0,|,0,0,0,0,0,0,0,0,0,0,0,0.000 ,0,0.000 ,0 ,0 ,0
2,CA_4G_I,2891,2015/11/16,2015/11/22,0,0,0,1 ,1,0,0,0,0,0,0,0,|,0,0,0,0,0,0,0,0,0,0,0,0.000 ,0,0.000 ,0 ,0 ,0
2,CA_4G_I,2891,2015/11/30,2015/12/6,0,0,0,6 ,5,0,0,0,0,0,0,0,|,0,0,0,0,0,0,0,0,0,0,0,0.000 ,0,0.000 ,0 ,0 ,0
1,CA_4G_H,2937,2015/11/16,2015/11/22,0,0,0,1 ,1,0,0,0,0,0,0,0,|,0,0,0,0,0,0,0,0,0,0,0,0.000 ,0,0.000 ,0 ,0 ,0
1,CA_4G_H,2937,2015/11/30,2015/12/6,0,0,0,1 ,1,0,0,0,0,0,0,0,|,0,0,0,0,0,0,0,0,0,0,0,0.000 ,0,0.000 ,0 ,0 ,0
1,CA_3G,2873,2015/9/28,2015/10/4,0,0,0,1 ,1,0,0,0,0,0,0,0,|,0,0,0,0,0,0,0,0,0,0,0,0.000 ,0,0.000 ,0 ,0 ,0
1,CA_3G,2873,2015/10/5,2015/10/11,0,0,0,1 ,1,0,0,0,0,0,0,0,|,0,0,0,0,0,0,0,0,0,0,0,0.000 ,0,0.000 ,0 ,0 ,0
1,CA_3G,2873,2015/10/19,2015/10/25,0,0,0,1 ,1,0,0,0,0,0,0,0,|,0,0,0,0,0,0,0,0,0,0,0,0.000 ,0,0.000 ,0 ,0 ,0
1,CA_3G,2873,2015/11/2,2015/11/8,0,0,0,2 ,2,0,0,0,0,0,0,0,|,0,0,0,0,0,0,0,0,0,0,0,0.000 ,0,0.000 ,0 ,0 ,0
1,CA_3G,2873,2015/11/16,2015/11/22,0,0,0,2 ,2,0,0,0,0,0,0,0,|,0,0,0,0,0,0,0,0,0,0,0,0.000 ,0,0.000 ,0 ,0 ,0
1,CA_3G,2873,2015/11/30,2015/12/6,0,0,0,4 ,3,0,0,0,0,0,0,0,|,0,0,0,0,0,0,0,0,0,0,0,0.000 ,0,0.000 ,0 ,0 ,0
1,RA_3G,2861,2015/10/12,2015/10/18,0,0,0,2 ,1,0,0,0,0,0,0,0,|,0,0,0,0,0,0,0,0,0,0,0,0.000 ,0,0.000 ,0 ,0 ,0
1,RA_3G,2861,2015/11/2,2015/11/8,0,0,0,1 ,1,0,0,0,0,0,0,0,|,0,0,0,0,0,0,0,0,0,0,0,0.000 ,0,0.000 ,0 ,0 ,0
1,RA_3G,2861,2015/11/23,2015/11/29,0,0,1,0 ,0,0,0,0,0,0,0,0,|,0,0,0,0,0,0,0,0,0,0,0,0.000 ,0,0.000 ,0 ,0 ,0
1,RA_3G,2861,2015/11/30,2015/12/6,0,0,0,1 ,1,0,0,0,0,0,0,0,|,0,0,0,0,0,0,0,0,0,0,0,0.000 ,0,0.000 ,0 ,0 ,0
2,CA_4G_I,2891,2015/10/12,2015/10/18,0,0,0,1 ,1,0,0,0,0,0,0,0,|,0,0,0,0,0,0,0,0,0,0,0,0.000 ,0,0.000 ,0 ,0 ,0
2,CA_4G_I,2891,2015/11/2,2015/11/8,0,0,0,2 ,2,0,0,0,0,0,0,0,|,0,0,0,0,0,0,0,0,0,0,0,0.000 ,0,0.000 ,0 ,0 ,0
2,CA_4G_I,2891,2015/11/30,2015/12/6,0,0,0,2 ,2,0,0,0,0,0,0,0,|,0,0,0,0,0,0,0,0,0,0,0,0.000 ,0,0.000 ,0 ,0 ,0
1,CA_4G_K,2951,2015/10/12,2015/10/18,0,0,0,2 ,2,0,0,0,0,0,0,0,|,0,0,0,0,0,0,0,0,0,0,0,0.000 ,0,0.000 ,0 ,0 ,0
1,CA_4G_K,2951,2015/11/16,2015/11/22,0,0,0,1 ,1,0,0,0,0,0,0,0,|,0,0,0,0,0,0,0,0,0,0,0,0.000 ,0,0.000 ,0 ,0 ,0
#N/A,#N/A,2930,2015/11/2,2015/11/8,0,0,0,1 ,1,0,0,0,0,0,0,0,|,0,0,0,0,0,0,0,0,0,0,0,0.000 ,0,0.000 ,0 ,0 ,0
2,CA_4G_K,2897,2015/9/28,2015/10/4,5,3,6,1909 ,74,66,15,43,17,34,20,19,43.2%,12,11,9,7,5,4,4,1,1,9,23,0.348 ,-2,-0.133 ,1 ,1 ,9
2,CA_4G_K,2897,2015/10/5,2015/10/11,6,5,5,1903 ,69,71,21,23,10,26,13,11,26.2%,6,15,12,10,8,2,1,0,0,0,48,0.676 ,11,0.524 ,0 ,0 ,0
2,CA_4G_K,2897,2015/10/12,2015/10/18,6,5,4,1497 ,69,37,11,9,5,7,6,12,42.9%,8,9,7,3,3,3,3,2,1,0,28,0.757 ,6,0.545 ,2 ,1 ,0
2,CA_4G_K,2897,2015/10/19,2015/10/25,7,8,8,2011 ,71,84,18,24,14,28,18,13,28.3%,9,12,10,9,8,2,2,1,1,0,60,0.714 ,4,0.222 ,1 ,1 ,0
2,CA_4G_K,2897,2015/10/26,2015/11/1,7,7,5,2217 ,77,82,20,26,11,32,21,26,41.3%,17,13,9,2,2,8,7,2,2,3,56,0.683 ,9,0.450 ,2 ,2 ,3
2,CA_4G_K,2897,2015/11/2,2015/11/8,3,6,5,2145 ,72,55,13,12,9,21,12,19,55.9%,11,14,14,7,6,2,2,1,1,0,43,0.782 ,4,0.308 ,1 ,1 ,0
2,CA_4G_K,2897,2015/11/9,2015/11/15,4,6,5,2394 ,73,117,22,43,14,17,12,22,37.3%,18,21,12,7,7,9,6,1,1,0,74,0.632 ,8,0.364 ,1 ,1 ,0
2,CA_4G_K,2897,2015/11/16,2015/11/22,6,7,9,2542 ,79,52,16,31,9,29,19,24,54.5%,12,16,10,3,3,11,9,3,3,0,21,0.404 ,7,0.438 ,3 ,3 ,0
2,CA_4G_K,2897,2015/11/23,2015/11/29,0,5,4,1948 ,71,66,13,24,9,13,12,17,45.9%,15,17,12,7,7,5,4,1,1,3,42,0.636 ,4,0.308 ,1 ,1 ,3
2,CA_4G_K,2897,2015/11/30,2015/12/6,5,2,7,1799 ,72,75,14,34,12,30,17,24,47.1%,15,16,13,6,6,2,2,7,6,4,41,0.547 ,2,0.143 ,7 ,6 ,4
2,CA_4G_K,2936,2015/9/28,2015/10/4,7,5,7,1183 ,70,119,16,58,12,19,12,21,39.6%,11,14,7,5,5,2,2,2,2,6,61,0.513 ,4,0.250 ,2 ,2 ,6
2,CA_4G_K,2936,2015/10/5,2015/10/11,1,2,1,1055 ,65,60,18,18,13,18,12,12,38.7%,9,9,7,2,2,5,4,1,1,0,42,0.700 ,5,0.278 ,1 ,1 ,0
2,CA_4G_K,2936,2015/10/12,2015/10/18,6,3,4,989 ,68,61,15,22,13,17,8,23,47.9%,13,10,8,0,0,7,6,4,4,0,39,0.639 ,2,0.133 ,4 ,4 ,0
2,CA_4G_K,2936,2015/10/19,2015/10/25,9,5,6,1058 ,70,40,11,19,10,14,9,18,100.0%,12,14,7,3,3,5,4,2,2,1,21,0.525 ,1,0.091 ,2 ,2 ,1
2,CA_4G_K,2936,2015/10/26,2015/11/1,5,4,3,1080 ,62,61,16,37,12,12,6,14,53.8%,9,10,8,4,3,3,3,5,4,7,24,0.393 ,4,0.250 ,5 ,4 ,7
2,CA_4G_K,2936,2015/11/2,2015/11/8,4,4,3,808 ,58,40,15,12,7,6,6,12,50.0%,10,13,10,4,4,4,4,0,0,0,28,0.700 ,8,0.533 ,0 ,0 ,0
2,CA_4G_K,2936,2015/11/9,2015/11/15,4,3,3,887 ,60,43,9,13,6,22,13,14,42.4%,8,13,10,9,4,6,6,0,0,0,30,0.698 ,3,0.333 ,0 ,0 ,0
2,CA_4G_K,2936,2015/11/16,2015/11/22,2,3,4,777 ,53,27,11,10,5,10,7,7,30.4%,6,9,6,6,4,6,6,5,4,0,17,0.630 ,6,0.545 ,5 ,4 ,0
2,CA_4G_K,2936,2015/11/23,2015/11/29,5,6,5,964 ,49,69,16,23,11,9,7,9,37.5%,7,8,6,7,6,2,2,1,1,2,46,0.667 ,5,0.313 ,1 ,1 ,2
2,CA_4G_K,2936,2015/11/30,2015/12/6,5,2,4,932 ,52,56,15,30,10,17,12,11,32.4%,7,4,4,3,3,0,0,1,1,3,26,0.464 ,5,0.333 ,1 ,1 ,3
2,CA_4G_O,2954,2015/9/28,2015/10/4,5,5,1,1139 ,47,28,9,20,8,12,7,21,87.5%,8,13,8,4,4,2,1,4,4,3,8,0.286 ,1,0.111 ,4 ,4 ,3
2,CA_4G_O,2954,2015/10/5,2015/10/11,5,0,2,1092 ,41,38,9,27,10,7,7,8,66.7%,5,15,5,10,7,5,3,3,3,0,11,0.289 ,-1,-0.111 ,3 ,3 ,0
2,CA_4G_O,2954,2015/10/12,2015/10/18,8,6,6,980 ,40,30,9,7,5,6,4,3,27.3%,3,5,4,3,3,1,1,0,0,0,23,0.767 ,4,0.444 ,0 ,0 ,0
2,CA_4G_O,2954,2015/10/19,2015/10/25,6,9,3,1230 ,45,56,14,28,9,14,9,9,32.1%,7,4,3,4,4,1,1,3,2,1,28,0.500 ,5,0.357 ,3 ,2 ,1
2,CA_4G_O,2954,2015/10/26,2015/11/1,1,7,5,1743 ,47,76,12,28,10,12,11,9,34.6%,6,5,4,2,2,3,2,2,2,3,48,0.632 ,2,0.167 ,2 ,2 ,3
2,CA_4G_O,2954,2015/11/2,2015/11/8,4,7,7,1877 ,51,101,13,58,9,12,9,16,48.5%,10,6,4,4,4,1,1,0,0,0,43,0.426 ,4,0.308 ,0 ,0 ,0
2,CA_4G_O,2954,2015/11/9,2015/11/15,2,1,2,1826 ,43,105,14,51,9,30,10,23,31.1%,11,11,8,3,3,5,2,1,1,0,54,0.514 ,5,0.357 ,1 ,1 ,0
2,CA_4G_O,2954,2015/11/16,2015/11/22,5,1,1,1723 ,43,24,11,11,8,20,11,17,89.5%,9,16,10,6,4,3,2,2,2,0,13,0.542 ,3,0.273 ,2 ,2 ,0
2,CA_4G_O,2954,2015/11/23,2015/11/29,5,6,4,1543 ,45,76,12,19,7,18,9,20,39.2%,8,12,7,7,5,2,2,4,2,2,57,0.750 ,5,0.417 ,4 ,2 ,2
2,CA_4G_O,2954,2015/11/30,2015/12/6,4,5,6,1683 ,52,62,14,33,12,22,10,19,61.3%,8,8,5,10,7,1,1,0,0,1,29,0.468 ,2,0.143 ,0 ,0 ,1
2,CA_4G_K,2896,2015/9/28,2015/10/4,3,3,3,1069 ,44,51,12,29,11,19,11,4,14.8%,3,4,4,1,1,1,1,0,0,6,22,0.431 ,1,0.083 ,0 ,0 ,6
2,CA_4G_K,2896,2015/10/5,2015/10/11,2,2,2,1130 ,44,37,12,19,9,10,6,15,57.7%,8,5,4,3,3,0,0,1,1,0,18,0.486 ,3,0.250 ,1 ,1 ,0
2,CA_4G_K,2896,2015/10/12,2015/10/18,4,4,4,971 ,44,77,12,29,10,9,7,10,28.6%,4,10,8,5,3,2,2,0,0,0,48,0.623 ,2,0.167 ,0 ,0 ,0
2,CA_4G_K,2896,2015/10/19,2015/10/25,5,6,6,1150 ,49,65,14,25,11,23,12,11,33.3%,8,8,5,5,5,1,1,1,1,0,40,0.615 ,3,0.214 ,1 ,1 ,0
2,CA_4G_K,2896,2015/10/26,2015/11/1,3,3,2,1508 ,49,52,15,33,15,9,9,12,44.4%,10,7,4,2,2,4,4,2,2,3,19,0.365 ,0,0.000 ,2 ,2 ,3
2,CA_4G_K,2896,2015/11/2,2015/11/8,3,3,3,1392 ,50,48,15,16,9,14,12,10,37.0%,9,9,8,5,5,3,3,0,0,0,32,0.667 ,6,0.400 ,0 ,0 ,0
2,CA_4G_K,2896,2015/11/9,2015/11/15,5,5,5,1638 ,51,55,14,14,9,20,12,16,48.5%,9,6,6,3,3,2,1,1,1,0,41,0.745 ,5,0.357 ,1 ,1 ,0
2,CA_4G_K,2896,2015/11/16,2015/11/22,4,2,1,1354 ,46,41,12,23,7,9,5,15,45.5%,12,11,7,6,5,1,1,2,2,1,18,0.439 ,5,0.417 ,2 ,2 ,1
2,CA_4G_K,2896,2015/11/23,2015/11/29,3,5,3,1318 ,45,59,11,10,8,14,8,13,50.0%,8,11,9,5,5,0,0,1,1,1,49,0.831 ,3,0.273 ,1 ,1 ,1
2,CA_4G_K,2896,2015/11/30,2015/12/6,2,2,1,1310 ,44,40,9,18,7,19,12,14,41.2%,7,12,7,9,7,2,2,1,1,2,22,0.550 ,2,0.222 ,1 ,1 ,2
2,CA_4G_K,2952,2015/9/28,2015/10/4,7,4,7,1635 ,49,80,17,44,15,20,17,20,52.6%,11,8,7,2,2,3,3,0,0,5,36,0.450 ,2,0.118 ,0 ,0 ,5
2,CA_4G_K,2952,2015/10/5,2015/10/11,2,1,2,1784 ,46,68,12,40,12,13,11,15,39.5%,10,16,12,6,4,3,3,1,1,0,28,0.412 ,0,0.000 ,1 ,1 ,0
2,CA_4G_K,2952,2015/10/12,2015/10/18,4,4,5,1594 ,48,82,18,25,8,10,9,17,43.6%,9,12,8,7,7,2,2,2,2,0,57,0.695 ,10,0.556 ,2 ,2 ,0
2,CA_4G_K,2952,2015/10/19,2015/10/25,4,5,6,1607 ,47,74,20,48,16,23,10,11,25.6%,8,10,7,10,7,2,2,4,4,1,26,0.351 ,4,0.200 ,4 ,4 ,1
2,CA_4G_K,2952,2015/10/26,2015/11/1,4,3,2,1938 ,45,72,19,20,11,9,8,18,66.7%,14,11,10,1,1,1,1,0,0,6,52,0.722 ,8,0.421 ,0 ,0 ,6
2,CA_4G_K,2952,2015/11/2,2015/11/8,1,4,3,1953 ,47,80,17,48,14,15,10,14,40.0%,6,11,8,7,5,1,1,0,0,0,32,0.400 ,3,0.176 ,0 ,0 ,0
2,CA_4G_K,2952,2015/11/9,2015/11/15,5,1,2,1816 ,50,70,17,45,16,15,12,9,28.1%,7,12,10,4,4,8,6,3,2,0,25,0.357 ,1,0.059 ,3 ,2 ,0
2,CA_4G_K,2952,2015/11/16,2015/11/22,4,6,2,2015 ,48,45,12,26,10,20,14,9,40.9%,8,10,8,8,8,2,2,1,1,0,19,0.422 ,2,0.167 ,1 ,1 ,0
2,CA_4G_K,2952,2015/11/23,2015/11/29,4,4,5,1872 ,50,85,16,49,11,10,7,5,21.7%,5,6,5,4,4,1,1,1,1,1,36,0.424 ,5,0.313 ,1 ,1 ,1
2,CA_4G_K,2952,2015/11/30,2015/12/6,4,3,2,1997 ,49,62,12,39,11,19,9,14,53.8%,10,4,3,2,2,1,1,0,0,3,23,0.371 ,1,0.083 ,0 ,0 ,3
1,CA_4G_H,2937,2015/9/28,2015/10/4,2,0,0,0 ,0,0,0,0,0,0,0,0,|,0,0,0,0,0,0,0,0,0,0,0,0.000 ,0,0.000 ,0 ,0 ,0
1,CA_4G_H,2937,2015/10/5,2015/10/11,3,1,0,0 ,0,0,0,0,0,0,0,0,|,0,0,0,0,0,0,0,0,0,0,0,0.000 ,0,0.000 ,0 ,0 ,0
1,CA_4G_H,2937,2015/10/12,2015/10/18,0,0,0,0 ,0,0,0,0,0,0,0,0,|,0,0,0,0,0,0,0,0,0,0,0,0.000 ,0,0.000 ,0 ,0 ,0
1,CA_4G_H,2937,2015/10/19,2015/10/25,2,0,0,0 ,0,0,0,0,0,0,0,0,|,0,0,0,0,0,0,0,0,0,0,0,0.000 ,0,0.000 ,0 ,0 ,0
1,CA_4G_H,2937,2015/10/26,2015/11/1,3,0,0,10 ,2,0,0,0,0,0,0,0,|,0,0,0,0,0,0,0,0,0,0,0,0.000 ,0,0.000 ,0 ,0 ,0
1,CA_4G_H,2937,2015/11/2,2015/11/8,5,0,0,0 ,0,0,0,0,0,0,0,0,|,0,0,0,0,0,0,0,0,0,0,0,0.000 ,0,0.000 ,0 ,0 ,0
1,CA_4G_H,2937,2015/11/9,2015/11/15,5,0,0,0 ,0,0,0,0,0,0,0,0,|,0,0,0,0,0,0,0,0,0,0,0,0.000 ,0,0.000 ,0 ,0 ,0
1,CA_4G_H,2937,2015/11/16,2015/11/22,2,0,0,0 ,0,0,0,0,0,0,0,0,|,0,0,0,0,0,0,0,0,0,0,0,0.000 ,0,0.000 ,0 ,0 ,0
1,CA_4G_H,2937,2015/11/23,2015/11/29,3,0,0,0 ,0,0,0,0,0,0,0,0,|,0,0,0,0,0,0,0,0,0,0,0,0.000 ,0,0.000 ,0 ,0 ,0
1,CA_4G_H,2937,2015/11/30,2015/12/6,1,0,0,0 ,0,0,0,0,0,0,0,0,|,0,0,0,0,0,0,0,0,0,0,0,0.000 ,0,0.000 ,0 ,0 ,0
#N/A,#N/A,2930,2015/9/28,2015/10/4,7,5,8,1861 ,63,163,21,76,18,28,13,30,43.5%,12,24,15,10,8,11,8,7,6,5,87,0.534 ,3,0.143 ,7 ,6 ,5
#N/A,#N/A,2930,2015/10/5,2015/10/11,7,3,3,1861 ,62,100,18,62,14,30,18,34,65.4%,19,20,12,7,5,8,7,4,4,0,38,0.380 ,4,0.222 ,4 ,4 ,0
#N/A,#N/A,2930,2015/10/12,2015/10/18,7,3,3,1416 ,59,60,14,32,10,11,8,21,61.8%,13,20,12,8,6,4,3,1,1,0,28,0.467 ,4,0.286 ,1 ,1 ,0
#N/A,#N/A,2930,2015/10/19,2015/10/25,6,5,3,1338 ,60,42,12,23,7,20,11,17,113.3%,11,13,10,12,9,3,3,1,1,1,19,0.452 ,5,0.417 ,1 ,1 ,1
#N/A,#N/A,2930,2015/10/26,2015/11/1,12,3,3,1754 ,64,66,13,23,8,10,9,23,74.2%,9,17,11,8,6,7,6,2,2,7,43,0.652 ,5,0.385 ,2 ,2 ,7
#N/A,#N/A,2930,2015/11/2,2015/11/8,10,3,4,1855 ,65,76,14,56,12,16,10,18,47.4%,11,13,9,3,3,2,2,0,0,0,20,0.263 ,2,0.143 ,0 ,0 ,0
#N/A,#N/A,2930,2015/11/9,2015/11/15,7,5,6,1763 ,56,108,14,58,10,15,9,9,37.5%,6,11,8,4,4,3,3,2,2,1,50,0.463 ,4,0.286 ,2 ,2 ,1
#N/A,#N/A,2930,2015/11/16,2015/11/22,6,2,1,1846 ,58,127,19,68,14,12,10,28,48.3%,15,14,9,7,5,3,2,2,2,1,59,0.465 ,5,0.263 ,2 ,2 ,1
#N/A,#N/A,2930,2015/11/23,2015/11/29,5,3,2,1462 ,51,94,15,43,9,21,8,32,72.7%,10,14,8,6,6,7,6,1,1,0,51,0.543 ,6,0.400 ,1 ,1 ,0
#N/A,#N/A,2930,2015/11/30,2015/12/6,3,4,5,1377 ,47,45,10,29,11,19,11,18,43.9%,10,18,10,6,4,4,4,2,2,1,16,0.356 ,-1,-0.100 ,2 ,2 ,1
2,CA_4G_H,2953,2015/9/28,2015/10/4,5,5,3,1626 ,63,62,14,39,10,21,10,16,50.0%,10,13,11,4,4,4,4,1,1,2,23,0.371 ,4,0.286 ,1 ,1 ,2
2,CA_4G_H,2953,2015/10/5,2015/10/11,6,5,4,1843 ,66,88,20,37,12,24,11,12,22.6%,8,2,2,4,4,2,2,1,1,0,51,0.580 ,8,0.400 ,1 ,1 ,0
2,CA_4G_H,2953,2015/10/12,2015/10/18,8,5,4,1544 ,65,69,14,29,12,17,9,20,57.1%,9,15,11,3,3,5,3,0,0,0,40,0.580 ,2,0.143 ,0 ,0 ,0
2,CA_4G_H,2953,2015/10/19,2015/10/25,8,6,3,1685 ,73,31,13,19,11,15,8,23,82.1%,9,13,8,11,5,3,3,3,3,1,12,0.387 ,2,0.154 ,3 ,3 ,1
2,CA_4G_H,2953,2015/10/26,2015/11/1,7,5,6,1874 ,66,81,22,29,11,10,10,16,45.7%,8,14,8,6,5,2,2,1,1,4,52,0.642 ,11,0.500 ,1 ,1 ,4
2,CA_4G_H,2953,2015/11/2,2015/11/8,6,2,1,1616 ,74,49,15,13,10,13,8,26,53.1%,8,14,12,9,7,5,4,0,0,0,36,0.735 ,5,0.333 ,0 ,0 ,0
2,CA_4G_H,2953,2015/11/9,2015/11/15,12,6,7,1573 ,73,37,14,16,7,14,11,9,50.0%,6,12,6,7,4,7,3,1,1,0,21,0.568 ,7,0.500 ,1 ,1 ,0
2,CA_4G_H,2953,2015/11/16,2015/11/22,5,6,3,1490 ,66,69,16,26,9,13,10,18,66.7%,11,14,9,4,3,4,3,1,1,0,43,0.623 ,7,0.438 ,1 ,1 ,0
2,CA_4G_H,2953,2015/11/23,2015/11/29,7,6,6,1298 ,61,115,14,65,17,12,8,18,42.9%,6,11,8,4,4,6,4,0,0,0,50,0.435 ,-3,-0.214 ,0 ,0 ,0
2,CA_4G_H,2953,2015/11/30,2015/12/6,8,2,5,1277 ,64,66,14,26,11,19,8,22,42.3%,10,15,10,2,2,5,4,2,2,4,40,0.606 ,3,0.214 ,2 ,2 ,4
2,CA_4G_H,2892,2015/9/28,2015/10/4,13,7,6,2332 ,58,129,19,66,18,15,10,23,50.0%,9,14,10,9,4,4,4,0,0,3,63,0.488 ,1,0.053 ,0 ,0 ,3
2,CA_4G_H,2892,2015/10/5,2015/10/11,7,1,3,1884 ,54,148,24,73,18,24,12,24,30.4%,11,20,13,9,7,1,1,2,2,0,75,0.507 ,6,0.250 ,2 ,2 ,0
2,CA_4G_H,2892,2015/10/12,2015/10/18,10,2,4,1394 ,48,115,14,39,16,23,12,23,52.3%,11,14,10,6,6,8,7,2,2,0,76,0.661 ,-2,-0.143 ,2 ,2 ,0
2,CA_4G_H,2892,2015/10/19,2015/10/25,5,5,9,1896 ,53,55,18,45,14,28,11,17,39.5%,8,19,12,6,5,2,2,0,0,0,10,0.182 ,4,0.222 ,0 ,0 ,0
2,CA_4G_H,2892,2015/10/26,2015/11/1,12,0,1,2239 ,50,133,18,75,14,27,15,13,26.5%,9,15,11,3,3,8,6,1,1,3,58,0.436 ,4,0.222 ,1 ,1 ,3
2,CA_4G_H,2892,2015/11/2,2015/11/8,10,5,2,1538 ,56,54,15,34,11,14,9,11,40.7%,9,11,10,3,3,2,2,2,2,0,20,0.370 ,4,0.267 ,2 ,2 ,0
2,CA_4G_H,2892,2015/11/9,2015/11/15,13,7,7,1668 ,49,81,16,38,10,13,6,14,51.9%,7,11,9,3,3,6,6,1,1,0,43,0.531 ,6,0.375 ,1 ,1 ,0
2,CA_4G_H,2892,2015/11/16,2015/11/22,6,4,8,2009 ,53,64,16,35,14,15,12,20,47.6%,11,13,11,7,6,6,4,0,0,1,29,0.453 ,2,0.125 ,0 ,0 ,1
2,CA_4G_H,2892,2015/11/23,2015/11/29,10,5,2,1970 ,55,95,18,42,17,14,11,24,53.3%,11,14,8,4,3,3,3,3,3,1,53,0.558 ,1,0.056 ,3 ,3 ,1
2,CA_4G_H,2892,2015/11/30,2015/12/6,5,1,4,1685 ,46,70,13,41,11,14,10,10,34.5%,5,17,7,7,5,3,2,2,2,3,29,0.414 ,2,0.154 ,2 ,2 ,3
2,CA_4G_H,2931,2015/9/28,2015/10/4,4,4,5,885 ,50,65,14,25,13,9,8,15,55.6%,8,13,10,6,5,5,4,2,2,5,40,0.615 ,1,0.071 ,2 ,2 ,5
2,CA_4G_H,2931,2015/10/5,2015/10/11,7,1,2,773 ,47,57,14,28,11,18,10,11,23.9%,8,13,9,6,5,3,3,1,1,0,29,0.509 ,3,0.214 ,1 ,1 ,0
2,CA_4G_H,2931,2015/10/12,2015/10/18,5,4,6,719 ,49,48,11,13,7,11,9,11,40.7%,5,6,6,2,2,6,4,0,0,0,35,0.729 ,4,0.364 ,0 ,0 ,0
2,CA_4G_H,2931,2015/10/19,2015/10/25,10,2,2,881 ,54,76,19,34,12,24,13,18,48.6%,10,9,7,5,3,3,3,4,3,0,42,0.553 ,7,0.368 ,4 ,3 ,0
2,CA_4G_H,2931,2015/10/26,2015/11/1,8,1,3,821 ,54,19,12,20,12,14,8,10,47.6%,10,8,7,2,2,7,3,1,1,3,-1,-0.053 ,0,0.000 ,1 ,1 ,3
2,CA_4G_H,2931,2015/11/2,2015/11/8,11,2,4,737 ,49,58,18,11,5,10,9,9,42.9%,8,5,4,2,2,2,2,0,0,0,47,0.810 ,13,0.722 ,0 ,0 ,0
2,CA_4G_H,2931,2015/11/9,2015/11/15,10,6,3,739 ,52,39,14,23,11,11,10,15,60.0%,8,13,12,5,5,2,2,1,1,0,16,0.410 ,3,0.214 ,1 ,1 ,0
2,CA_4G_H,2931,2015/11/16,2015/11/22,3,4,4,777 ,47,90,14,39,11,13,9,15,35.7%,7,11,8,1,1,6,4,3,3,1,51,0.567 ,3,0.214 ,3 ,3 ,1
2,CA_4G_H,2931,2015/11/23,2015/11/29,8,3,4,644 ,43,55,13,29,13,17,12,15,45.5%,9,9,8,5,4,2,2,1,1,2,26,0.473 ,0,0.000 ,1 ,1 ,2
2,CA_4G_H,2931,2015/11/30,2015/12/6,8,2,1,730 ,44,70,11,36,11,10,5,8,30.8%,6,14,8,9,8,2,2,3,3,4,34,0.486 ,0,0.000 ,3 ,3 ,4
2,CA_4G_H,2932,2015/9/28,2015/10/4,8,8,8,1944 ,67,110,19,50,14,14,10,4,15.4%,4,5,5,0,0,5,5,1,1,4,60,0.545 ,5,0.263 ,1 ,1 ,4
2,CA_4G_H,2932,2015/10/5,2015/10/11,10,8,9,2357 ,68,270,28,139,25,28,10,24,30.0%,9,2,2,3,3,0,0,0,0,0,131,0.485 ,3,0.107 ,0 ,0 ,0
2,CA_4G_H,2932,2015/10/12,2015/10/18,6,3,2,1738 ,68,148,23,114,20,33,14,21,30.4%,12,17,9,5,4,1,1,1,1,0,34,0.230 ,3,0.130 ,1 ,1 ,0
2,CA_4G_H,2932,2015/10/19,2015/10/25,8,5,8,1881 ,73,153,21,83,19,38,20,27,42.9%,10,19,11,6,6,5,4,0,0,1,70,0.458 ,2,0.095 ,0 ,0 ,1
2,CA_4G_H,2932,2015/10/26,2015/11/1,6,3,3,2278 ,68,116,22,63,15,41,20,21,42.0%,11,20,11,12,8,4,2,1,1,1,53,0.457 ,7,0.318 ,1 ,1 ,1
2,CA_4G_H,2932,2015/11/2,2015/11/8,9,6,6,2010 ,73,121,18,56,16,22,13,23,37.7%,11,11,8,6,5,4,4,1,1,0,65,0.537 ,2,0.111 ,1 ,1 ,0
2,CA_4G_H,2932,2015/11/9,2015/11/15,7,5,6,1931 ,73,89,20,53,16,23,15,25,58.1%,9,18,9,4,4,4,4,1,1,1,36,0.404 ,4,0.200 ,1 ,1 ,1
2,CA_4G_H,2932,2015/11/16,2015/11/22,8,3,3,1980 ,68,58,22,34,18,18,14,17,48.6%,11,21,12,13,9,10,9,5,5,1,24,0.414 ,4,0.182 ,5 ,5 ,1
2,CA_4G_H,2932,2015/11/23,2015/11/29,2,5,3,1704 ,65,116,20,47,15,17,10,26,56.5%,9,10,8,6,6,7,6,2,2,0,69,0.595 ,5,0.250 ,2 ,2 ,0
2,CA_4G_H,2932,2015/11/30,2015/12/6,4,1,2,1714 ,68,76,13,39,16,28,14,15,27.3%,8,7,6,5,5,3,3,2,2,2,37,0.487 ,-3,-0.231 ,2 ,2 ,2
2,CA_4G_I,2899,2015/9/28,2015/10/4,6,7,8,1629 ,69,89,23,55,16,16,12,16,45.7%,8,10,9,4,3,3,3,2,2,6,34,0.382 ,7,0.304 ,2 ,2 ,6
2,CA_4G_I,2899,2015/10/5,2015/10/11,8,6,7,1668 ,69,155,27,45,15,37,22,48,49.0%,23,17,10,27,13,5,4,2,2,0,110,0.710 ,12,0.444 ,2 ,2 ,0
2,CA_4G_I,2899,2015/10/12,2015/10/18,7,5,6,1491 ,64,57,20,35,13,15,10,20,60.6%,10,19,12,6,6,3,3,1,1,1,22,0.386 ,7,0.350 ,1 ,1 ,1
2,CA_4G_I,2899,2015/10/19,2015/10/25,2,10,5,1769 ,73,71,16,30,15,19,11,8,27.6%,5,16,8,7,5,3,3,0,0,0,41,0.577 ,1,0.063 ,0 ,0 ,0
2,CA_4G_I,2899,2015/10/26,2015/11/1,5,4,4,2160 ,70,96,20,35,11,23,15,38,58.5%,15,11,9,11,5,3,3,3,2,3,61,0.635 ,9,0.450 ,3 ,2 ,3
2,CA_4G_I,2899,2015/11/2,2015/11/8,3,2,1,1531 ,63,64,19,40,11,11,8,16,59.3%,5,18,8,9,5,6,3,1,1,0,24,0.375 ,8,0.421 ,1 ,1 ,0
2,CA_4G_I,2899,2015/11/9,2015/11/15,4,5,0,1764 ,67,59,14,31,13,16,10,16,61.5%,10,18,10,13,11,5,4,1,1,0,28,0.475 ,1,0.071 ,1 ,1 ,0
2,CA_4G_I,2899,2015/11/16,2015/11/22,12,3,9,2073 ,66,84,21,31,14,11,7,7,26.9%,5,19,10,8,6,10,6,4,3,1,53,0.631 ,7,0.333 ,4 ,3 ,1
2,CA_4G_I,2899,2015/11/23,2015/11/29,5,8,6,1896 ,65,117,23,59,18,18,12,29,46.0%,16,8,6,5,4,2,2,3,2,2,58,0.496 ,5,0.217 ,3 ,2 ,2
2,CA_4G_I,2899,2015/11/30,2015/12/6,5,4,0,2231 ,67,56,14,29,12,21,13,24,68.6%,14,15,9,5,4,1,1,0,0,2,27,0.482 ,2,0.143 ,0 ,0 ,2
#N/A,#N/A,2918,2015/9/28,2015/10/4,4,9,9,1614 ,63,79,14,31,10,5,4,10,37.0%,7,6,6,10,9,1,1,6,6,6,48,0.608 ,4,0.286 ,6 ,6 ,6
#N/A,#N/A,2918,2015/10/5,2015/10/11,3,4,2,1714 ,54,82,14,36,6,24,15,17,39.5%,9,9,9,4,4,0,0,1,1,0,46,0.561 ,8,0.571 ,1 ,1 ,0
#N/A,#N/A,2918,2015/10/12,2015/10/18,6,3,1,1537 ,54,26,11,17,8,13,10,10,43.5%,9,10,7,1,1,2,2,0,0,0,9,0.346 ,3,0.273 ,0 ,0 ,0
#N/A,#N/A,2918,2015/10/19,2015/10/25,7,5,5,1847 ,59,39,11,22,9,8,6,12,66.7%,7,12,8,10,7,1,1,1,1,1,17,0.436 ,2,0.182 ,1 ,1 ,1
#N/A,#N/A,2918,2015/10/26,2015/11/1,5,6,11,2575 ,61,119,17,45,15,18,11,17,32.1%,10,3,3,5,5,3,2,1,1,1,74,0.622 ,2,0.118 ,1 ,1 ,1
#N/A,#N/A,2918,2015/11/2,2015/11/8,7,5,3,2237 ,63,53,17,28,10,17,14,24,63.2%,13,14,9,8,7,3,3,1,1,0,25,0.472 ,7,0.412 ,1 ,1 ,0
#N/A,#N/A,2918,2015/11/9,2015/11/15,7,6,8,2442 ,64,82,20,20,13,18,14,17,41.5%,11,20,13,7,5,3,2,0,0,0,62,0.756 ,7,0.350 ,0 ,0 ,0
#N/A,#N/A,2918,2015/11/16,2015/11/22,7,4,0,2568 ,61,60,15,33,13,17,10,22,48.9%,12,18,13,7,6,8,8,2,2,1,27,0.450 ,2,0.133 ,2 ,2 ,1
#N/A,#N/A,2918,2015/11/23,2015/11/29,5,5,6,2161 ,62,54,16,17,9,19,11,21,72.4%,10,19,12,9,8,4,3,3,3,1,37,0.685 ,7,0.438 ,3 ,3 ,1
#N/A,#N/A,2918,2015/11/30,2015/12/6,4,0,3,2047 ,57,47,15,20,11,16,11,15,41.7%,9,15,10,8,5,3,3,0,0,2,27,0.574 ,4,0.267 ,0 ,0 ,2
#N/A,#N/A,2919,2015/9/28,2015/10/4,5,10,9,2121 ,64,117,18,42,11,17,11,16,33.3%,10,13,12,4,4,1,1,0,0,4,75,0.641 ,7,0.389 ,0 ,0 ,4
#N/A,#N/A,2919,2015/10/5,2015/10/11,6,3,1,2040 ,60,94,21,48,13,24,12,14,33.3%,8,7,4,13,10,2,2,0,0,0,46,0.489 ,8,0.381 ,0 ,0 ,0
#N/A,#N/A,2919,2015/10/12,2015/10/18,7,9,9,1818 ,66,47,16,30,12,16,12,11,47.8%,9,10,8,4,3,4,3,1,1,0,17,0.362 ,4,0.250 ,1 ,1 ,0
#N/A,#N/A,2919,2015/10/19,2015/10/25,6,10,6,2017 ,67,61,17,27,14,16,10,19,70.4%,11,10,7,11,8,7,5,2,2,0,34,0.557 ,3,0.176 ,2 ,2 ,0
#N/A,#N/A,2919,2015/10/26,2015/11/1,3,4,3,2196 ,67,51,21,27,14,8,6,15,46.9%,10,7,6,3,3,2,2,2,2,1,24,0.471 ,7,0.333 ,2 ,2 ,1
#N/A,#N/A,2919,2015/11/2,2015/11/8,12,7,6,2070 ,69,54,15,25,12,15,13,9,27.3%,8,14,11,6,6,2,2,1,1,0,29,0.537 ,3,0.200 ,1 ,1 ,0
#N/A,#N/A,2919,2015/11/9,2015/11/15,7,6,3,1812 ,67,59,18,21,12,26,15,14,32.6%,10,7,7,5,5,1,1,2,2,0,38,0.644 ,6,0.333 ,2 ,2 ,0
#N/A,#N/A,2919,2015/11/16,2015/11/22,5,6,6,2091 ,66,49,15,11,9,13,11,17,85.0%,12,13,9,2,2,3,3,1,1,0,38,0.776 ,6,0.400 ,1 ,1 ,0
#N/A,#N/A,2919,2015/11/23,2015/11/29,3,4,5,1477 ,63,60,18,22,11,11,10,17,44.7%,10,22,16,9,7,7,7,2,2,0,38,0.633 ,7,0.389 ,2 ,2 ,0
#N/A,#N/A,2919,2015/11/30,2015/12/6,6,4,5,1691 ,60,69,16,25,9,18,13,22,45.8%,10,13,9,10,9,4,4,2,2,3,44,0.638 ,7,0.438 ,2 ,2 ,3
2,CA_4G_I,2910,2015/9/28,2015/10/4,3,7,5,1625 ,59,65,19,25,13,23,13,33,68.8%,22,13,10,16,8,4,3,2,2,7,40,0.615 ,6,0.316 ,2 ,2 ,7
2,CA_4G_I,2910,2015/10/5,2015/10/11,1,3,2,1820 ,59,75,20,22,11,14,9,25,55.6%,11,21,12,10,9,5,3,0,0,0,53,0.707 ,9,0.450 ,0 ,0 ,0
2,CA_4G_I,2910,2015/10/12,2015/10/18,5,5,5,1475 ,57,55,16,17,9,15,9,13,59.1%,9,14,10,4,4,3,2,3,3,0,38,0.691 ,7,0.438 ,3 ,3 ,0
2,CA_4G_I,2910,2015/10/19,2015/10/25,2,6,5,1472 ,70,121,16,44,15,25,14,34,35.8%,14,19,12,10,7,12,9,3,3,0,77,0.636 ,1,0.063 ,3 ,3 ,0
2,CA_4G_I,2910,2015/10/26,2015/11/1,6,4,5,1820 ,60,113,17,22,8,32,15,36,54.5%,19,14,10,8,7,8,7,1,1,7,91,0.805 ,9,0.529 ,1 ,1 ,7
2,CA_4G_I,2910,2015/11/2,2015/11/8,3,5,6,1504 ,61,69,15,23,10,25,14,26,59.1%,11,19,12,6,6,8,6,2,2,0,46,0.667 ,5,0.333 ,2 ,2 ,0
2,CA_4G_I,2910,2015/11/9,2015/11/15,9,4,5,1835 ,63,78,17,26,15,32,15,34,58.6%,11,26,13,23,10,7,6,1,1,1,52,0.667 ,2,0.118 ,1 ,1 ,1
2,CA_4G_I,2910,2015/11/16,2015/11/22,3,9,3,1693 ,56,33,14,11,7,11,10,18,72.0%,8,17,13,9,5,8,7,3,3,0,22,0.667 ,7,0.500 ,3 ,3 ,0
2,CA_4G_I,2910,2015/11/23,2015/11/29,3,3,5,1324 ,53,23,12,9,8,11,8,11,52.4%,7,12,8,8,7,5,3,2,2,2,14,0.609 ,4,0.333 ,2 ,2 ,2
2,CA_4G_I,2910,2015/11/30,2015/12/6,3,3,3,1600 ,56,40,8,14,7,9,8,13,76.5%,8,5,5,3,3,1,1,2,2,5,26,0.650 ,1,0.125 ,2 ,2 ,5
2,CA_4G_I,2934,2015/9/28,2015/10/4,10,3,4,1712 ,45,46,13,28,8,7,6,12,37.5%,7,14,10,7,4,6,4,2,2,1,18,0.391 ,5,0.385 ,2 ,2 ,1
2,CA_4G_I,2934,2015/10/5,2015/10/11,4,2,1,1690 ,40,47,13,17,7,14,10,12,44.4%,7,6,6,0,0,3,3,0,0,0,30,0.638 ,6,0.462 ,0 ,0 ,0
2,CA_4G_I,2934,2015/10/12,2015/10/18,4,5,5,1442 ,41,38,14,17,8,7,6,21,75.0%,11,14,8,2,2,9,6,0,0,0,21,0.553 ,6,0.429 ,0 ,0 ,0
2,CA_4G_I,2934,2015/10/19,2015/10/25,7,5,6,1891 ,46,45,13,12,9,14,7,20,69.0%,10,11,7,12,7,4,4,0,0,0,33,0.733 ,4,0.308 ,0 ,0 ,0
2,CA_4G_I,2934,2015/10/26,2015/11/1,3,1,5,2132 ,48,42,11,26,8,14,10,4,19.0%,3,9,7,5,3,3,3,4,4,4,16,0.381 ,3,0.273 ,4 ,4 ,4
2,CA_4G_I,2934,2015/11/2,2015/11/8,2,3,6,1737 ,44,44,7,18,4,10,5,6,33.3%,3,5,3,4,3,1,1,0,0,0,26,0.591 ,3,0.429 ,0 ,0 ,0
2,CA_4G_I,2934,2015/11/9,2015/11/15,8,8,4,1892 ,47,62,12,31,11,7,6,12,52.2%,7,4,2,3,2,2,1,0,0,0,31,0.500 ,1,0.083 ,0 ,0 ,0
2,CA_4G_I,2934,2015/11/16,2015/11/22,8,6,2,2343 ,54,82,13,23,12,19,11,22,40.7%,8,8,7,3,3,3,3,1,1,0,59,0.720 ,1,0.077 ,1 ,1 ,0
2,CA_4G_I,2934,2015/11/23,2015/11/29,4,9,7,2812 ,59,119,13,39,11,16,11,22,38.6%,11,10,7,4,3,4,3,0,0,2,80,0.672 ,2,0.154 ,0 ,0 ,2
2,CA_4G_I,2934,2015/11/30,2015/12/6,4,4,5,2486 ,56,56,11,30,5,34,11,34,69.4%,12,12,10,4,4,3,3,0,0,0,26,0.464 ,6,0.545 ,0 ,0 ,0
2,CA_4G_I,2889,2015/9/28,2015/10/4,3,6,3,1423 ,48,47,11,20,8,2,2,7,33.3%,5,6,5,4,2,2,2,2,2,5,27,0.574 ,3,0.273 ,2 ,2 ,5
2,CA_4G_I,2889,2015/10/5,2015/10/11,6,3,4,1389 ,40,38,12,14,8,17,11,16,44.4%,9,4,4,3,1,2,2,1,1,0,24,0.632 ,4,0.333 ,1 ,1 ,0
2,CA_4G_I,2889,2015/10/12,2015/10/18,7,7,5,1318 ,44,26,8,9,3,3,3,7,100.0%,7,8,7,4,4,4,4,0,0,0,17,0.654 ,5,0.625 ,0 ,0 ,0
2,CA_4G_I,2889,2015/10/19,2015/10/25,4,8,9,1757 ,53,54,13,29,11,11,8,14,50.0%,8,2,2,2,2,1,1,1,1,0,25,0.463 ,2,0.154 ,1 ,1 ,0
2,CA_4G_I,2889,2015/10/26,2015/11/1,5,2,4,2117 ,52,92,16,28,12,14,7,18,35.3%,7,10,9,1,1,4,4,3,3,5,64,0.696 ,4,0.250 ,3 ,3 ,5
2,CA_4G_I,2889,2015/11/2,2015/11/8,4,4,3,1916 ,50,75,16,31,9,11,5,24,53.3%,8,11,8,5,4,0,0,2,2,0,44,0.587 ,7,0.438 ,2 ,2 ,0
2,CA_4G_I,2889,2015/11/9,2015/11/15,8,7,6,1718 ,53,65,16,29,14,16,9,31,77.5%,11,22,8,6,3,11,5,0,0,0,36,0.554 ,2,0.125 ,0 ,0 ,0
2,CA_4G_I,2889,2015/11/16,2015/11/22,7,3,5,2374 ,53,55,17,25,10,12,9,21,56.8%,9,21,9,10,6,10,7,2,2,1,30,0.545 ,7,0.412 ,2 ,2 ,1
2,CA_4G_I,2889,2015/11/23,2015/11/29,7,6,5,2751 ,59,78,15,30,9,9,7,18,64.3%,10,9,7,5,5,3,3,1,1,0,48,0.615 ,6,0.400 ,1 ,1 ,0
2,CA_4G_I,2889,2015/11/30,2015/12/6,3,6,6,2207 ,64,63,19,21,9,20,12,25,61.0%,12,11,8,1,1,1,1,1,1,1,42,0.667 ,10,0.526 ,1 ,1 ,1
2,CA_4G_I,2890,2015/9/28,2015/10/4,6,3,5,1538 ,38,53,12,15,8,11,7,15,45.5%,9,11,9,7,5,6,5,0,0,1,38,0.717 ,4,0.333 ,0 ,0 ,1
2,CA_4G_I,2890,2015/10/5,2015/10/11,5,4,2,1483 ,40,17,9,8,5,14,8,16,76.2%,10,8,5,3,3,4,3,2,1,0,9,0.529 ,4,0.444 ,2 ,1 ,0
2,CA_4G_I,2890,2015/10/12,2015/10/18,4,7,10,1457 ,50,100,11,34,5,11,8,9,27.3%,6,8,7,3,3,0,0,2,2,0,66,0.660 ,6,0.545 ,2 ,2 ,0
2,CA_4G_I,2890,2015/10/19,2015/10/25,5,8,7,1792 ,48,83,16,43,11,17,12,21,52.5%,10,12,9,5,3,4,3,0,0,2,40,0.482 ,5,0.313 ,0 ,0 ,2
2,CA_4G_I,2890,2015/10/26,2015/11/1,6,6,6,2306 ,52,65,17,40,11,11,9,25,75.8%,14,14,12,4,3,4,4,5,5,3,25,0.385 ,6,0.353 ,5 ,5 ,3
2,CA_4G_I,2890,2015/11/2,2015/11/8,6,7,5,2120 ,55,80,15,30,14,14,8,23,39.0%,11,15,9,8,7,7,6,4,4,0,50,0.625 ,1,0.067 ,4 ,4 ,0
2,CA_4G_I,2890,2015/11/9,2015/11/15,5,6,4,2084 ,57,52,13,20,8,23,9,20,80.0%,9,20,9,9,6,1,1,3,3,0,32,0.615 ,5,0.385 ,3 ,3 ,0
2,CA_4G_I,2890,2015/11/16,2015/11/22,4,3,2,2030 ,53,38,12,19,7,7,5,17,73.9%,13,15,9,10,6,3,3,0,0,1,19,0.500 ,5,0.417 ,0 ,0 ,1
2,CA_4G_I,2890,2015/11/23,2015/11/29,5,2,5,1764 ,49,25,9,9,6,11,8,11,61.1%,7,11,9,7,6,4,4,1,1,2,16,0.640 ,3,0.333 ,1 ,1 ,2
2,CA_4G_I,2890,2015/11/30,2015/12/6,4,5,2,2267 ,54,40,7,13,6,12,9,17,56.7%,10,11,8,7,7,2,2,0,0,3,27,0.675 ,1,0.143 ,0 ,0 ,3
1,CA_4G_O,2888,2015/9/28,2015/10/4,0,0,0,0 ,0,0,0,0,0,0,0,0,|,0,0,0,0,0,0,0,0,0,0,0,0.000 ,0,0.000 ,0 ,0 ,0
1,CA_4G_O,2888,2015/10/5,2015/10/11,0,0,0,0 ,0,0,0,0,0,0,0,0,|,0,0,0,0,0,0,0,0,0,0,0,0.000 ,0,0.000 ,0 ,0 ,0
1,CA_4G_O,2888,2015/10/12,2015/10/18,1,0,0,0 ,0,0,0,0,0,0,0,0,|,0,0,0,0,0,0,0,0,0,0,0,0.000 ,0,0.000 ,0 ,0 ,0
1,CA_4G_O,2888,2015/10/19,2015/10/25,0,0,0,0 ,0,0,0,0,0,0,0,0,|,0,0,0,0,0,0,0,0,0,0,0,0.000 ,0,0.000 ,0 ,0 ,0
1,CA_4G_O,2888,2015/10/26,2015/11/1,0,0,0,0 ,0,0,0,0,0,0,0,0,|,0,0,0,0,0,0,0,0,0,0,0,0.000 ,0,0.000 ,0 ,0 ,0
1,CA_4G_O,2888,2015/11/2,2015/11/8,0,0,0,0 ,0,0,0,0,0,0,0,0,|,0,0,0,0,0,0,0,0,0,0,0,0.000 ,0,0.000 ,0 ,0 ,0
1,CA_4G_O,2888,2015/11/9,2015/11/15,0,0,0,0 ,0,0,0,0,0,0,0,0,|,0,0,0,0,0,0,0,0,0,0,0,0.000 ,0,0.000 ,0 ,0 ,0
1,CA_4G_O,2888,2015/11/16,2015/11/22,0,0,0,0 ,0,0,0,0,0,0,0,0,|,0,0,0,0,0,0,0,0,0,0,0,0.000 ,0,0.000 ,0 ,0 ,0
1,CA_4G_O,2888,2015/11/23,2015/11/29,0,0,0,0 ,0,0,0,0,0,0,0,0,|,0,0,0,0,0,0,0,0,0,0,0,0.000 ,0,0.000 ,0 ,0 ,0
1,CA_4G_O,2888,2015/11/30,2015/12/6,0,0,0,0 ,0,0,0,0,0,0,0,0,|,0,0,0,0,0,0,0,0,0,0,0,0.000 ,0,0.000 ,0 ,0 ,0
#N/A,#N/A,2917,2015/9/28,2015/10/4,7,7,8,1286 ,44,58,15,31,12,16,11,33,66.0%,12,12,7,6,5,1,1,1,1,3,27,0.466 ,3,0.200 ,1 ,1 ,3
#N/A,#N/A,2917,2015/10/5,2015/10/11,6,6,5,1431 ,42,65,20,26,13,8,7,28,71.8%,14,22,12,9,6,1,1,0,0,0,39,0.600 ,7,0.350 ,0 ,0 ,0
#N/A,#N/A,2917,2015/10/12,2015/10/18,4,4,2,1151 ,43,120,17,34,13,15,8,11,42.3%,6,16,10,11,9,6,5,1,1,0,86,0.717 ,4,0.235 ,1 ,1 ,0
#N/A,#N/A,2917,2015/10/19,2015/10/25,8,9,6,1823 ,45,136,16,74,10,18,13,20,37.7%,10,9,7,10,6,1,1,0,0,1,62,0.456 ,6,0.375 ,0 ,0 ,1
#N/A,#N/A,2917,2015/10/26,2015/11/1,5,3,5,1701 ,39,145,16,73,12,22,10,47,54.0%,14,19,9,9,9,3,2,1,1,2,72,0.497 ,4,0.250 ,1 ,1 ,2
#N/A,#N/A,2917,2015/11/2,2015/11/8,3,7,7,1273 ,44,134,15,78,15,15,8,29,44.6%,11,23,12,13,9,7,4,1,1,0,56,0.418 ,0,0.000 ,1 ,1 ,0
#N/A,#N/A,2917,2015/11/9,2015/11/15,5,6,5,1383 ,49,65,14,48,12,23,9,38,84.4%,14,22,13,8,5,10,9,2,2,0,17,0.262 ,2,0.143 ,2 ,2 ,0
#N/A,#N/A,2917,2015/11/16,2015/11/22,5,5,4,1470 ,46,54,15,15,7,18,12,21,80.8%,11,23,12,13,10,15,10,2,2,1,39,0.722 ,8,0.533 ,2 ,2 ,1
#N/A,#N/A,2917,2015/11/23,2015/11/29,1,6,4,1354 ,44,40,13,20,9,11,8,13,41.9%,6,16,10,9,8,8,6,6,5,0,20,0.500 ,4,0.308 ,6 ,5 ,0
#N/A,#N/A,2917,2015/11/30,2015/12/6,7,2,3,1327 ,43,70,9,36,8,10,7,14,46.7%,7,9,6,1,1,1,1,1,1,6,34,0.486 ,1,0.111 ,1 ,1 ,6
2,CA_4G_I,2891,2015/9/28,2015/10/4,0,0,0,3 ,3,0,0,0,0,0,0,0,|,0,0,0,0,0,0,0,0,0,0,0,0.000 ,0,0.000 ,0 ,0 ,0
2,CA_4G_I,2891,2015/10/5,2015/10/11,0,0,0,2 ,2,0,0,0,0,0,0,0,|,0,0,0,0,0,0,0,0,0,0,0,0.000 ,0,0.000 ,0 ,0 ,0
2,CA_4G_I,2891,2015/10/19,2015/10/25,0,0,0,1 ,1,0,0,0,0,0,0,0,|,0,0,0,0,0,0,0,0,0,0,0,0.000 ,0,0.000 ,0 ,0 ,0
2,CA_4G_I,2891,2015/11/2,2015/11/8,0,0,0,8 ,7,0,0,0,0,0,0,0,|,0,0,0,0,0,0,0,0,0,0,0,0.000 ,0,0.000 ,0 ,0 ,0
2,CA_4G_I,2891,2015/11/9,2015/11/15,0,0,0,3 ,3,0,0,0,0,0,0,0,|,0,0,0,0,0,0,0,0,0,0,0,0.000 ,0,0.000 ,0 ,0 ,0
2,CA_4G_I,2891,2015/11/16,2015/11/22,0,0,0,3 ,3,0,0,0,0,0,0,0,|,0,0,0,0,0,0,0,0,0,0,0,0.000 ,0,0.000 ,0 ,0 ,0
2,CA_4G_I,2891,2015/11/30,2015/12/6,0,0,0,10 ,10,0,0,0,0,0,0,0,|,0,0,0,0,0,0,0,0,0,0,0,0.000 ,0,0.000 ,0 ,0 ,0
#N/A,#N/A,2918,2015/10/12,2015/10/18,0,0,0,1 ,1,0,0,0,0,0,0,0,|,0,0,0,0,0,0,0,0,0,0,0,0.000 ,0,0.000 ,0 ,0 ,0
#N/A,#N/A,2918,2015/11/16,2015/11/22,0,0,0,1 ,1,0,0,0,0,0,0,0,|,0,0,0,0,0,0,0,0,0,0,0,0.000 ,0,0.000 ,0 ,0 ,0
#N/A,#N/A,2918,2015/11/30,2015/12/6,0,0,0,1 ,1,0,0,0,0,0,0,0,|,0,0,0,0,0,0,0,0,0,0,0,0.000 ,0,0.000 ,0 ,0 ,0
1,CA_3G,2875,2015/9/28,2015/10/4,0,0,0,11 ,1,0,0,0,0,0,0,0,|,0,0,0,0,0,0,0,0,0,0,0,0.000 ,0,0.000 ,0 ,0 ,0
1,CA_4G_K,2951,2015/11/2,2015/11/8,0,0,0,1 ,1,0,0,0,0,0,0,0,|,0,0,0,0,0,0,0,0,0,0,0,0.000 ,0,0.000 ,0 ,0 ,0
2,CA_4G_K,2897,2015/9/28,2015/10/4,0,0,1,0 ,0,0,0,0,0,0,0,0,|,0,0,0,0,0,0,0,0,0,0,0,0.000 ,0,0.000 ,0 ,0 ,0
2,CA_4G_K,2897,2015/11/2,2015/11/8,0,0,0,14 ,1,0,0,0,0,0,0,0,|,0,0,0,0,0,0,0,0,0,0,0,0.000 ,0,0.000 ,0 ,0 ,0
2,CA_4G_K,2897,2015/11/9,2015/11/15,0,1,0,55 ,1,0,0,0,0,0,0,0,|,0,0,0,0,0,0,0,0,0,0,0,0.000 ,0,0.000 ,0 ,0 ,0
2,CA_4G_K,2897,2015/11/16,2015/11/22,0,0,0,81 ,1,34,1,5,1,1,1,1,6.3%,1,0,0,0,0,0,0,0,0,0,29,0.853 ,0,0.000 ,0 ,0 ,0
2,CA_4G_K,2897,2015/11/23,2015/11/29,0,0,0,59 ,1,0,0,3,1,5,1,13,144.4%,1,3,1,0,0,1,1,0,0,0,-3,-3.000 ,-1,-1.000 ,0 ,0 ,0
2,CA_4G_K,2897,2015/11/30,2015/12/6,0,0,0,38 ,1,0,0,0,0,0,0,2,|,1,2,1,0,0,3,1,1,1,0,0,0.000 ,0,0.000 ,1 ,1 ,0
1,CA_3G,2875,2015/11/2,2015/11/8,0,0,0,1 ,1,0,0,0,0,0,0,0,|,0,0,0,0,0,0,0,0,0,0,0,0.000 ,0,0.000 ,0 ,0 ,0
1,CA_4G_O,2888,2015/10/5,2015/10/11,0,0,0,1 ,1,0,0,0,0,0,0,0,|,0,0,0,0,0,0,0,0,0,0,0,0.000 ,0,0.000 ,0 ,0 ,0
1,CA_4G_O,2888,2015/11/30,2015/12/6,0,0,0,1 ,1,0,0,0,0,0,0,0,|,0,0,0,0,0,0,0,0,0,0,0,0.000 ,0,0.000 ,0 ,0 ,0
1,CA_3G,2875,2015/10/5,2015/10/11,0,0,0,1 ,1,0,0,0,0,0,0,0,|,0,0,0,0,0,0,0,0,0,0,0,0.000 ,0,0.000 ,0 ,0 ,0
1,CA_3G,2876,2015/11/2,2015/11/8,0,0,0,1 ,1,0,0,0,0,0,0,0,|,0,0,0,0,0,0,0,0,0,0,0,0.000 ,0,0.000 ,0 ,0 ,0
1,CA_3G,2876,2015/11/9,2015/11/15,0,0,0,4 ,3,0,0,0,0,0,0,0,|,0,0,0,0,0,0,0,0,0,0,0,0.000 ,0,0.000 ,0 ,0 ,0
1,CA_3G,2876,2015/11/30,2015/12/6,0,0,0,4 ,4,0,0,0,0,0,0,0,|,0,0,0,0,0,0,0,0,0,0,0,0.000 ,0,0.000 ,0 ,0 ,0
2,CA_4G_K,2936,2015/11/9,2015/11/15,0,0,0,1 ,1,0,0,0,0,0,0,0,|,0,0,0,0,0,0,0,0,0,0,0,0.000 ,0,0.000 ,0 ,0 ,0
1,CA_3G,2935,2015/11/16,2015/11/22,0,0,0,1 ,1,0,0,0,0,0,0,0,|,0,0,0,0,0,0,0,0,0,0,0,0.000 ,0,0.000 ,0 ,0 ,0
